<?xml version="1.0" encoding="UTF-8" standalone="no"?>
<!-- Created with Inkscape (http://www.inkscape.org/) -->

<svg
   xmlns:dc="http://purl.org/dc/elements/1.1/"
   xmlns:cc="http://creativecommons.org/ns#"
   xmlns:rdf="http://www.w3.org/1999/02/22-rdf-syntax-ns#"
   xmlns:svg="http://www.w3.org/2000/svg"
   xmlns="http://www.w3.org/2000/svg"
   xmlns:sodipodi="http://sodipodi.sourceforge.net/DTD/sodipodi-0.dtd"
   xmlns:inkscape="http://www.inkscape.org/namespaces/inkscape"
   width="644.89178"
   height="391.06516"
   id="svg3923"
   version="1.1"
   inkscape:version="0.91 r13725"
   sodipodi:docname="drawing-1.svg">
  <defs
     id="defs3925">
    <marker
       inkscape:stockid="Arrow1Send"
       orient="auto"
       refY="0"
       refX="0"
       id="Arrow1Send"
       style="overflow:visible">
      <path
         id="path5614"
         d="M 0,0 5,-5 -12.5,0 5,5 0,0 z"
         style="fill-rule:evenodd;stroke:#000000;stroke-width:1pt;marker-start:none"
         transform="matrix(-0.2,0,0,-0.2,-1.2,0)" />
    </marker>
    <marker
       inkscape:stockid="Arrow1Lend"
       orient="auto"
       refY="0"
       refX="0"
       id="Arrow1Lend"
       style="overflow:visible">
      <path
         id="path5602"
         d="M 0,0 5,-5 -12.5,0 5,5 0,0 z"
         style="fill-rule:evenodd;stroke:#000000;stroke-width:1pt;marker-start:none"
         transform="matrix(-0.8,0,0,-0.8,-10,0)" />
    </marker>
    <marker
       inkscape:stockid="Arrow1Mend"
       orient="auto"
       refY="0"
       refX="0"
       id="Arrow1Mend"
       style="overflow:visible">
      <path
         id="path5608"
         d="M 0,0 5,-5 -12.5,0 5,5 0,0 z"
         style="fill-rule:evenodd;stroke:#000000;stroke-width:1pt;marker-start:none"
         transform="matrix(-0.4,0,0,-0.4,-4,0)" />
    </marker>
    <inkscape:perspective
       sodipodi:type="inkscape:persp3d"
       inkscape:vp_x="0 : 526.18109 : 1"
       inkscape:vp_y="0 : 1000 : 0"
       inkscape:vp_z="744.09448 : 526.18109 : 1"
       inkscape:persp3d-origin="372.04724 : 350.78739 : 1"
       id="perspective3931" />
    <inkscape:perspective
       id="perspective4463"
       inkscape:persp3d-origin="0.5 : 0.33333333 : 1"
       inkscape:vp_z="1 : 0.5 : 1"
       inkscape:vp_y="0 : 1000 : 0"
       inkscape:vp_x="0 : 0.5 : 1"
       sodipodi:type="inkscape:persp3d" />
    <inkscape:perspective
       id="perspective4485"
       inkscape:persp3d-origin="0.5 : 0.33333333 : 1"
       inkscape:vp_z="1 : 0.5 : 1"
       inkscape:vp_y="0 : 1000 : 0"
       inkscape:vp_x="0 : 0.5 : 1"
       sodipodi:type="inkscape:persp3d" />
    <inkscape:perspective
       id="perspective4510"
       inkscape:persp3d-origin="0.5 : 0.33333333 : 1"
       inkscape:vp_z="1 : 0.5 : 1"
       inkscape:vp_y="0 : 1000 : 0"
       inkscape:vp_x="0 : 0.5 : 1"
       sodipodi:type="inkscape:persp3d" />
    <inkscape:perspective
       id="perspective4532"
       inkscape:persp3d-origin="0.5 : 0.33333333 : 1"
       inkscape:vp_z="1 : 0.5 : 1"
       inkscape:vp_y="0 : 1000 : 0"
       inkscape:vp_x="0 : 0.5 : 1"
       sodipodi:type="inkscape:persp3d" />
    <inkscape:perspective
       id="perspective4566"
       inkscape:persp3d-origin="0.5 : 0.33333333 : 1"
       inkscape:vp_z="1 : 0.5 : 1"
       inkscape:vp_y="0 : 1000 : 0"
       inkscape:vp_x="0 : 0.5 : 1"
       sodipodi:type="inkscape:persp3d" />
    <inkscape:perspective
       id="perspective4664"
       inkscape:persp3d-origin="0.5 : 0.33333333 : 1"
       inkscape:vp_z="1 : 0.5 : 1"
       inkscape:vp_y="0 : 1000 : 0"
       inkscape:vp_x="0 : 0.5 : 1"
       sodipodi:type="inkscape:persp3d" />
    <filter
       inkscape:collect="always"
       id="filter4844"
       color-interpolation-filters="sRGB">
      <feGaussianBlur
         inkscape:collect="always"
         stdDeviation="5.8"
         id="feGaussianBlur4846" />
    </filter>
    <inkscape:perspective
       id="perspective4881"
       inkscape:persp3d-origin="0.5 : 0.33333333 : 1"
       inkscape:vp_z="1 : 0.5 : 1"
       inkscape:vp_y="0 : 1000 : 0"
       inkscape:vp_x="0 : 0.5 : 1"
       sodipodi:type="inkscape:persp3d" />
    <inkscape:perspective
       id="perspective4881-4"
       inkscape:persp3d-origin="0.5 : 0.33333333 : 1"
       inkscape:vp_z="1 : 0.5 : 1"
       inkscape:vp_y="0 : 1000 : 0"
       inkscape:vp_x="0 : 0.5 : 1"
       sodipodi:type="inkscape:persp3d" />
    <inkscape:perspective
       id="perspective4881-9"
       inkscape:persp3d-origin="0.5 : 0.33333333 : 1"
       inkscape:vp_z="1 : 0.5 : 1"
       inkscape:vp_y="0 : 1000 : 0"
       inkscape:vp_x="0 : 0.5 : 1"
       sodipodi:type="inkscape:persp3d" />
    <inkscape:perspective
       id="perspective4881-5"
       inkscape:persp3d-origin="0.5 : 0.33333333 : 1"
       inkscape:vp_z="1 : 0.5 : 1"
       inkscape:vp_y="0 : 1000 : 0"
       inkscape:vp_x="0 : 0.5 : 1"
       sodipodi:type="inkscape:persp3d" />
    <inkscape:perspective
       id="perspective4881-8"
       inkscape:persp3d-origin="0.5 : 0.33333333 : 1"
       inkscape:vp_z="1 : 0.5 : 1"
       inkscape:vp_y="0 : 1000 : 0"
       inkscape:vp_x="0 : 0.5 : 1"
       sodipodi:type="inkscape:persp3d" />
    <inkscape:perspective
       id="perspective4881-3"
       inkscape:persp3d-origin="0.5 : 0.33333333 : 1"
       inkscape:vp_z="1 : 0.5 : 1"
       inkscape:vp_y="0 : 1000 : 0"
       inkscape:vp_x="0 : 0.5 : 1"
       sodipodi:type="inkscape:persp3d" />
    <inkscape:perspective
       id="perspective4961"
       inkscape:persp3d-origin="0.5 : 0.33333333 : 1"
       inkscape:vp_z="1 : 0.5 : 1"
       inkscape:vp_y="0 : 1000 : 0"
       inkscape:vp_x="0 : 0.5 : 1"
       sodipodi:type="inkscape:persp3d" />
    <inkscape:perspective
       id="perspective4961-6"
       inkscape:persp3d-origin="0.5 : 0.33333333 : 1"
       inkscape:vp_z="1 : 0.5 : 1"
       inkscape:vp_y="0 : 1000 : 0"
       inkscape:vp_x="0 : 0.5 : 1"
       sodipodi:type="inkscape:persp3d" />
    <inkscape:perspective
       id="perspective4961-9"
       inkscape:persp3d-origin="0.5 : 0.33333333 : 1"
       inkscape:vp_z="1 : 0.5 : 1"
       inkscape:vp_y="0 : 1000 : 0"
       inkscape:vp_x="0 : 0.5 : 1"
       sodipodi:type="inkscape:persp3d" />
    <inkscape:perspective
       id="perspective5080"
       inkscape:persp3d-origin="0.5 : 0.33333333 : 1"
       inkscape:vp_z="1 : 0.5 : 1"
       inkscape:vp_y="0 : 1000 : 0"
       inkscape:vp_x="0 : 0.5 : 1"
       sodipodi:type="inkscape:persp3d" />
    <inkscape:perspective
       id="perspective5182"
       inkscape:persp3d-origin="0.5 : 0.33333333 : 1"
       inkscape:vp_z="1 : 0.5 : 1"
       inkscape:vp_y="0 : 1000 : 0"
       inkscape:vp_x="0 : 0.5 : 1"
       sodipodi:type="inkscape:persp3d" />
    <inkscape:perspective
       id="perspective5204"
       inkscape:persp3d-origin="0.5 : 0.33333333 : 1"
       inkscape:vp_z="1 : 0.5 : 1"
       inkscape:vp_y="0 : 1000 : 0"
       inkscape:vp_x="0 : 0.5 : 1"
       sodipodi:type="inkscape:persp3d" />
    <inkscape:perspective
       id="perspective5359"
       inkscape:persp3d-origin="0.5 : 0.33333333 : 1"
       inkscape:vp_z="1 : 0.5 : 1"
       inkscape:vp_y="0 : 1000 : 0"
       inkscape:vp_x="0 : 0.5 : 1"
       sodipodi:type="inkscape:persp3d" />
    <filter
       inkscape:collect="always"
       id="filter5427"
       color-interpolation-filters="sRGB">
      <feGaussianBlur
         inkscape:collect="always"
         stdDeviation="3.2"
         id="feGaussianBlur5429" />
    </filter>
    <inkscape:perspective
       id="perspective5439"
       inkscape:persp3d-origin="0.5 : 0.33333333 : 1"
       inkscape:vp_z="1 : 0.5 : 1"
       inkscape:vp_y="0 : 1000 : 0"
       inkscape:vp_x="0 : 0.5 : 1"
       sodipodi:type="inkscape:persp3d" />
    <inkscape:perspective
       id="perspective5464"
       inkscape:persp3d-origin="0.5 : 0.33333333 : 1"
       inkscape:vp_z="1 : 0.5 : 1"
       inkscape:vp_y="0 : 1000 : 0"
       inkscape:vp_x="0 : 0.5 : 1"
       sodipodi:type="inkscape:persp3d" />
    <inkscape:perspective
       id="perspective5562"
       inkscape:persp3d-origin="0.5 : 0.33333333 : 1"
       inkscape:vp_z="1 : 0.5 : 1"
       inkscape:vp_y="0 : 1000 : 0"
       inkscape:vp_x="0 : 0.5 : 1"
       sodipodi:type="inkscape:persp3d" />
    <filter
       inkscape:collect="always"
       id="filter5582"
       color-interpolation-filters="sRGB">
      <feGaussianBlur
         inkscape:collect="always"
         stdDeviation="2.5"
         id="feGaussianBlur5584" />
    </filter>
    <inkscape:perspective
       id="perspective6618"
       inkscape:persp3d-origin="0.5 : 0.33333333 : 1"
       inkscape:vp_z="1 : 0.5 : 1"
       inkscape:vp_y="0 : 1000 : 0"
       inkscape:vp_x="0 : 0.5 : 1"
       sodipodi:type="inkscape:persp3d" />
    <marker
       inkscape:stockid="Arrow1Mend"
       orient="auto"
       refY="0"
       refX="0"
       id="Arrow1Mend-8"
       style="overflow:visible">
      <path
         id="path5608-4"
         d="M 0,0 5,-5 -12.5,0 5,5 0,0 z"
         style="fill-rule:evenodd;stroke:#000000;stroke-width:1pt;marker-start:none"
         transform="matrix(-0.4,0,0,-0.4,-4,0)" />
    </marker>
    <inkscape:perspective
       id="perspective6646"
       inkscape:persp3d-origin="0.5 : 0.33333333 : 1"
       inkscape:vp_z="1 : 0.5 : 1"
       inkscape:vp_y="0 : 1000 : 0"
       inkscape:vp_x="0 : 0.5 : 1"
       sodipodi:type="inkscape:persp3d" />
    <filter
       inkscape:collect="always"
       id="filter6660"
       color-interpolation-filters="sRGB">
      <feGaussianBlur
         inkscape:collect="always"
         stdDeviation="5.1259693"
         id="feGaussianBlur6662" />
    </filter>
    <inkscape:perspective
       id="perspective6672"
       inkscape:persp3d-origin="0.5 : 0.33333333 : 1"
       inkscape:vp_z="1 : 0.5 : 1"
       inkscape:vp_y="0 : 1000 : 0"
       inkscape:vp_x="0 : 0.5 : 1"
       sodipodi:type="inkscape:persp3d" />
    <filter
       inkscape:collect="always"
       id="filter6698"
       color-interpolation-filters="sRGB">
      <feGaussianBlur
         inkscape:collect="always"
         stdDeviation="4.8430872"
         id="feGaussianBlur6700" />
    </filter>
  </defs>
  <sodipodi:namedview
     id="base"
     pagecolor="#ffffff"
     bordercolor="#666666"
     borderopacity="1.0"
     inkscape:pageopacity="0.0"
     inkscape:pageshadow="2"
     inkscape:zoom="1.1668986"
     inkscape:cx="175.79808"
     inkscape:cy="-70.646406"
     inkscape:document-units="px"
     inkscape:current-layer="layer1"
     showgrid="false"
     inkscape:window-width="1955"
     inkscape:window-height="1470"
     inkscape:window-x="1764"
     inkscape:window-y="235"
     inkscape:window-maximized="0" />
  <metadata
     id="metadata3928">
    <rdf:RDF>
      <cc:Work
         rdf:about="">
        <dc:format>image/svg+xml</dc:format>
        <dc:type
           rdf:resource="http://purl.org/dc/dcmitype/StillImage" />
        <dc:title />
      </cc:Work>
    </rdf:RDF>
  </metadata>
  <g
     inkscape:label="Layer 1"
     inkscape:groupmode="layer"
     id="layer1"
     transform="translate(-12.755571,-30.190628)">
    <rect
       style="fill:#666666;fill-opacity:1;fill-rule:nonzero;stroke:none;filter:url(#filter6698)"
       id="rect3935-38"
       width="352.30515"
       height="293.43982"
       x="24.378981"
       y="41.814037" />
    <rect
       style="fill:#4d4d4d;fill-opacity:1;fill-rule:nonzero;stroke:none;filter:url(#filter6660)"
       id="rect3935-3-4"
       width="233.18597"
       height="176.89157"
       x="412.15903"
       y="232.06189" />
    <rect
       style="fill:#666666;fill-opacity:1;fill-rule:nonzero;stroke:none;filter:url(#filter5582)"
       id="rect3933-8-0-5-8-9"
       width="100"
       height="100"
       x="543.02496"
       y="45.98093" />
    <rect
       style="fill:#9f9a9b;fill-opacity:1;fill-rule:nonzero;stroke:none"
       id="rect3935"
       width="352.30515"
       height="293.43982"
       x="19.710373"
       y="34.780643" />
    <text
       xml:space="preserve"
       style="font-size:40px;font-style:normal;font-weight:normal;fill:#000000;fill-opacity:1;stroke:none;font-family:Bitstream Vera Sans"
       x="29.137064"
       y="69.414772"
       id="text4451"><tspan
         sodipodi:role="line"
         id="tspan4453"
         x="29.137064"
         y="69.414772">grid</tspan></text>
    <g
       id="g4607-8"
       transform="translate(-74.183582,-365.97127)"
       style="fill:#4d4d4d;filter:url(#filter4844)">
      <rect
         y="452.36218"
         x="150"
         height="50"
         width="50"
         id="rect3933-0"
         style="fill:#4d4d4d;fill-opacity:1;fill-rule:nonzero;stroke:none" />
      <rect
         y="452.36218"
         x="202"
         height="50"
         width="50"
         id="rect3933-1-5"
         style="fill:#4d4d4d;fill-opacity:1;fill-rule:nonzero;stroke:none" />
      <rect
         y="452.36218"
         x="254"
         height="50"
         width="50"
         id="rect3933-8-37"
         style="fill:#4d4d4d;fill-opacity:1;fill-rule:nonzero;stroke:none" />
      <rect
         y="452.36218"
         x="306"
         height="50"
         width="50"
         id="rect3933-1-3-4"
         style="fill:#4d4d4d;fill-opacity:1;fill-rule:nonzero;stroke:none" />
      <rect
         y="452.36218"
         x="358"
         height="50"
         width="50"
         id="rect3933-1-3-1-3"
         style="fill:#4d4d4d;fill-opacity:1;fill-rule:nonzero;stroke:none" />
      <rect
         y="504.36218"
         x="150"
         height="50"
         width="50"
         id="rect3933-3-91"
         style="fill:#4d4d4d;fill-opacity:1;fill-rule:nonzero;stroke:none" />
      <rect
         y="504.36218"
         x="202"
         height="50"
         width="50"
         id="rect3933-1-8-3"
         style="fill:#4d4d4d;fill-opacity:1;fill-rule:nonzero;stroke:none" />
      <rect
         y="504.36218"
         x="254"
         height="50"
         width="50"
         id="rect3933-8-0-1"
         style="fill:#4d4d4d;fill-opacity:1;fill-rule:nonzero;stroke:none" />
      <rect
         y="504.36218"
         x="306"
         height="50"
         width="50"
         id="rect3933-1-3-17-4"
         style="fill:#4d4d4d;fill-opacity:1;fill-rule:nonzero;stroke:none" />
      <rect
         y="504.36218"
         x="358"
         height="50"
         width="50"
         id="rect3933-1-3-1-8-6"
         style="fill:#4d4d4d;fill-opacity:1;fill-rule:nonzero;stroke:none" />
      <rect
         y="556.36218"
         x="150"
         height="50"
         width="50"
         id="rect3933-86-3"
         style="fill:#4d4d4d;fill-opacity:1;fill-rule:nonzero;stroke:none" />
      <rect
         y="556.36218"
         x="202"
         height="50"
         width="50"
         id="rect3933-1-2-0"
         style="fill:#4d4d4d;fill-opacity:1;fill-rule:nonzero;stroke:none" />
      <rect
         y="556.36218"
         x="254"
         height="50"
         width="50"
         id="rect3933-8-3-9"
         style="fill:#4d4d4d;fill-opacity:1;fill-rule:nonzero;stroke:none" />
      <rect
         y="556.36218"
         x="306"
         height="50"
         width="50"
         id="rect3933-1-3-7-9"
         style="fill:#4d4d4d;fill-opacity:1;fill-rule:nonzero;stroke:none" />
      <rect
         y="556.36218"
         x="358"
         height="50"
         width="50"
         id="rect3933-1-3-1-88-2"
         style="fill:#4d4d4d;fill-opacity:1;fill-rule:nonzero;stroke:none" />
      <rect
         y="608.36218"
         x="150"
         height="50"
         width="50"
         id="rect3933-3-9-5"
         style="fill:#4d4d4d;fill-opacity:1;fill-rule:nonzero;stroke:none" />
      <rect
         y="608.36218"
         x="202"
         height="50"
         width="50"
         id="rect3933-1-8-9-4"
         style="fill:#4d4d4d;fill-opacity:1;fill-rule:nonzero;stroke:none" />
      <rect
         y="608.36218"
         x="254"
         height="50"
         width="50"
         id="rect3933-8-0-0-3"
         style="fill:#4d4d4d;fill-opacity:1;fill-rule:nonzero;stroke:none" />
      <rect
         y="608.36218"
         x="306"
         height="50"
         width="50"
         id="rect3933-1-3-17-0-5"
         style="fill:#4d4d4d;fill-opacity:1;fill-rule:nonzero;stroke:none" />
      <rect
         y="608.36218"
         x="358"
         height="50"
         width="50"
         id="rect3933-1-3-1-8-3-2"
         style="fill:#4d4d4d;fill-opacity:1;fill-rule:nonzero;stroke:none" />
    </g>
    <rect
       style="fill:#c8c8be;fill-opacity:1;fill-rule:nonzero;stroke:none"
       id="rect3933"
       width="50"
       height="50"
       x="67.730644"
       y="78.722191" />
    <rect
       style="fill:#c8c8be;fill-opacity:1;fill-rule:nonzero;stroke:none"
       id="rect3933-1"
       width="50"
       height="50"
       x="119.73064"
       y="78.722191" />
    <rect
       style="fill:#c8c8be;fill-opacity:1;fill-rule:nonzero;stroke:none"
       id="rect3933-8"
       width="50"
       height="50"
       x="171.73064"
       y="78.722191" />
    <rect
       style="fill:#c8c8be;fill-opacity:1;fill-rule:nonzero;stroke:none"
       id="rect3933-1-3"
       width="50"
       height="50"
       x="223.73064"
       y="78.722191" />
    <rect
       style="fill:#c8c8be;fill-opacity:1;fill-rule:nonzero;stroke:none"
       id="rect3933-1-3-1"
       width="50"
       height="50"
       x="275.73065"
       y="78.722191" />
    <rect
       style="fill:#c8c8be;fill-opacity:1;fill-rule:nonzero;stroke:none"
       id="rect3933-3"
       width="50"
       height="50"
       x="67.730644"
       y="130.7222" />
    <rect
       style="fill:#c8c8be;fill-opacity:1;fill-rule:nonzero;stroke:none"
       id="rect3933-1-8"
       width="50"
       height="50"
       x="119.73064"
       y="130.7222" />
    <rect
       style="fill:#c8c8be;fill-opacity:1;fill-rule:nonzero;stroke:none"
       id="rect3933-8-0"
       width="50"
       height="50"
       x="171.73064"
       y="130.7222" />
    <rect
       style="fill:#afafe9;fill-opacity:1;fill-rule:nonzero;stroke:none"
       id="rect3933-1-3-17"
       width="50"
       height="50"
       x="223.73064"
       y="130.7222" />
    <rect
       style="fill:#c8c8be;fill-opacity:1;fill-rule:nonzero;stroke:none"
       id="rect3933-1-3-1-8"
       width="50"
       height="50"
       x="275.73065"
       y="130.7222" />
    <rect
       style="fill:#c8c8be;fill-opacity:1;fill-rule:nonzero;stroke:none"
       id="rect3933-86"
       width="50"
       height="50"
       x="67.730644"
       y="182.7222" />
    <rect
       style="fill:#c8c8be;fill-opacity:1;fill-rule:nonzero;stroke:none"
       id="rect3933-1-2"
       width="50"
       height="50"
       x="119.73064"
       y="182.7222" />
    <rect
       style="fill:#c8c8be;fill-opacity:1;fill-rule:nonzero;stroke:none"
       id="rect3933-8-3"
       width="50"
       height="50"
       x="171.73064"
       y="182.7222" />
    <rect
       style="fill:#c8c8be;fill-opacity:1;fill-rule:nonzero;stroke:none"
       id="rect3933-1-3-7"
       width="50"
       height="50"
       x="223.73064"
       y="182.7222" />
    <rect
       style="fill:#c8c8be;fill-opacity:1;fill-rule:nonzero;stroke:none"
       id="rect3933-1-3-1-88"
       width="50"
       height="50"
       x="275.73065"
       y="182.7222" />
    <rect
       style="fill:#c8c8be;fill-opacity:1;fill-rule:nonzero;stroke:none"
       id="rect3933-3-9"
       width="50"
       height="50"
       x="67.730644"
       y="234.7222" />
    <rect
       style="fill:#c8c8be;fill-opacity:1;fill-rule:nonzero;stroke:none"
       id="rect3933-1-8-9"
       width="50"
       height="50"
       x="119.73064"
       y="234.7222" />
    <rect
       style="fill:#c8c8be;fill-opacity:1;fill-rule:nonzero;stroke:none"
       id="rect3933-8-0-0"
       width="50"
       height="50"
       x="171.73064"
       y="234.7222" />
    <rect
       style="fill:#c8c8be;fill-opacity:1;fill-rule:nonzero;stroke:none"
       id="rect3933-1-3-17-0"
       width="50"
       height="50"
       x="223.73064"
       y="234.7222" />
    <rect
       style="fill:#c8c8be;fill-opacity:1;fill-rule:nonzero;stroke:none"
       id="rect3933-1-3-1-8-3"
       width="50"
       height="50"
       x="275.73065"
       y="234.7222" />
    <text
       xml:space="preserve"
       style="font-size:18.72601509px;font-style:normal;font-weight:normal;fill:#000000;fill-opacity:1;stroke:none;font-family:Bitstream Vera Sans"
       x="74.492111"
       y="114.48119"
       id="text4869"
       transform="scale(1.0382262,0.96318125)"><tspan
         sodipodi:role="line"
         id="tspan4871"
         x="74.492111"
         y="114.48119">0,0</tspan></text>
    <text
       xml:space="preserve"
       style="font-size:18.72601509px;font-style:normal;font-weight:normal;fill:#000000;fill-opacity:1;stroke:none;font-family:Bitstream Vera Sans"
       x="122.95024"
       y="114.48119"
       id="text4869-4"
       transform="scale(1.0382262,0.96318125)"><tspan
         sodipodi:role="line"
         id="tspan4871-6"
         x="122.95024"
         y="114.48119">1,0</tspan></text>
    <text
       xml:space="preserve"
       style="font-size:18.72601509px;font-style:normal;font-weight:normal;fill:#000000;fill-opacity:1;stroke:none;font-family:Bitstream Vera Sans"
       x="173.57637"
       y="114.48119"
       id="text4869-45"
       transform="scale(1.0382262,0.96318125)"><tspan
         sodipodi:role="line"
         id="tspan4871-2"
         x="173.57637"
         y="114.48119">2,0</tspan></text>
    <text
       xml:space="preserve"
       style="font-size:18.72601509px;font-style:normal;font-weight:normal;fill:#000000;fill-opacity:1;stroke:none;font-family:Bitstream Vera Sans"
       x="224.47688"
       y="114.48119"
       id="text4869-33"
       transform="scale(1.0382262,0.96318125)"><tspan
         sodipodi:role="line"
         id="tspan4871-5"
         x="224.47688"
         y="114.48119">3,0</tspan></text>
    <text
       xml:space="preserve"
       style="font-size:18.72601509px;font-style:normal;font-weight:normal;fill:#000000;fill-opacity:1;stroke:none;font-family:Bitstream Vera Sans"
       x="274.00208"
       y="114.48119"
       id="text4869-5"
       transform="scale(1.0382262,0.96318125)"><tspan
         sodipodi:role="line"
         id="tspan4871-9"
         x="274.00208"
         y="114.48119">4,0</tspan></text>
    <text
       xml:space="preserve"
       style="font-size:18.72601509px;font-style:normal;font-weight:normal;fill:#000000;fill-opacity:1;stroke:none;font-family:Bitstream Vera Sans"
       x="75.214996"
       y="166.01265"
       id="text4869-1"
       transform="scale(1.0382262,0.96318125)"><tspan
         sodipodi:role="line"
         id="tspan4871-50"
         x="75.214996"
         y="166.01265">0,1</tspan></text>
    <text
       xml:space="preserve"
       style="font-size:18.72601509px;font-style:normal;font-weight:normal;fill:#000000;fill-opacity:1;stroke:none;font-family:Bitstream Vera Sans"
       x="123.67313"
       y="166.01265"
       id="text4869-4-6"
       transform="scale(1.0382262,0.96318125)"><tspan
         sodipodi:role="line"
         id="tspan4871-6-6"
         x="123.67313"
         y="166.01265">1,1</tspan></text>
    <text
       xml:space="preserve"
       style="font-size:18.72601509px;font-style:normal;font-weight:normal;fill:#000000;fill-opacity:1;stroke:none;font-family:Bitstream Vera Sans"
       x="174.29926"
       y="166.01265"
       id="text4869-45-2"
       transform="scale(1.0382262,0.96318125)"><tspan
         sodipodi:role="line"
         id="tspan4871-2-6"
         x="174.29926"
         y="166.01265">2,1</tspan></text>
    <text
       xml:space="preserve"
       style="font-size:18.72601509px;font-style:normal;font-weight:normal;fill:#000000;fill-opacity:1;stroke:none;font-family:Bitstream Vera Sans"
       x="225.19977"
       y="166.01265"
       id="text4869-33-8"
       transform="scale(1.0382262,0.96318125)"><tspan
         sodipodi:role="line"
         id="tspan4871-5-3"
         x="225.19977"
         y="166.01265">3,1</tspan></text>
    <text
       xml:space="preserve"
       style="font-size:18.72601509px;font-style:normal;font-weight:normal;fill:#000000;fill-opacity:1;stroke:none;font-family:Bitstream Vera Sans"
       x="274.72498"
       y="166.01265"
       id="text4869-5-9"
       transform="scale(1.0382262,0.96318125)"><tspan
         sodipodi:role="line"
         id="tspan4871-9-9"
         x="274.72498"
         y="166.01265">4,1</tspan></text>
    <text
       xml:space="preserve"
       style="font-size:18.72601509px;font-style:normal;font-weight:normal;fill:#000000;fill-opacity:1;stroke:none;font-family:Bitstream Vera Sans"
       x="74.38958"
       y="220.28624"
       id="text4869-14"
       transform="scale(1.0382262,0.96318125)"><tspan
         sodipodi:role="line"
         id="tspan4871-12"
         x="74.38958"
         y="220.28624">0,2</tspan></text>
    <text
       xml:space="preserve"
       style="font-size:18.72601509px;font-style:normal;font-weight:normal;fill:#000000;fill-opacity:1;stroke:none;font-family:Bitstream Vera Sans"
       x="122.84771"
       y="220.28624"
       id="text4869-4-9"
       transform="scale(1.0382262,0.96318125)"><tspan
         sodipodi:role="line"
         id="tspan4871-6-2"
         x="122.84771"
         y="220.28624">1,2</tspan></text>
    <text
       xml:space="preserve"
       style="font-size:18.72601509px;font-style:normal;font-weight:normal;fill:#000000;fill-opacity:1;stroke:none;font-family:Bitstream Vera Sans"
       x="173.47383"
       y="220.28624"
       id="text4869-45-0"
       transform="scale(1.0382262,0.96318125)"><tspan
         sodipodi:role="line"
         id="tspan4871-2-8"
         x="173.47383"
         y="220.28624">2,2</tspan></text>
    <text
       xml:space="preserve"
       style="font-size:18.72601509px;font-style:normal;font-weight:normal;fill:#000000;fill-opacity:1;stroke:none;font-family:Bitstream Vera Sans"
       x="224.37434"
       y="220.28624"
       id="text4869-33-4"
       transform="scale(1.0382262,0.96318125)"><tspan
         sodipodi:role="line"
         id="tspan4871-5-5"
         x="224.37434"
         y="220.28624">3,2</tspan></text>
    <text
       xml:space="preserve"
       style="font-size:18.72601509px;font-style:normal;font-weight:normal;fill:#000000;fill-opacity:1;stroke:none;font-family:Bitstream Vera Sans"
       x="273.89957"
       y="220.28624"
       id="text4869-5-1"
       transform="scale(1.0382262,0.96318125)"><tspan
         sodipodi:role="line"
         id="tspan4871-9-0"
         x="273.89957"
         y="220.28624">4,2</tspan></text>
    <text
       xml:space="preserve"
       style="font-size:18.72601509px;font-style:normal;font-weight:normal;fill:#000000;fill-opacity:1;stroke:none;font-family:Bitstream Vera Sans"
       x="76.040421"
       y="274.55988"
       id="text4869-0"
       transform="scale(1.0382262,0.96318125)"><tspan
         sodipodi:role="line"
         id="tspan4871-4"
         x="76.040421"
         y="274.55988">0,3</tspan></text>
    <text
       xml:space="preserve"
       style="font-size:18.72601509px;font-style:normal;font-weight:normal;fill:#000000;fill-opacity:1;stroke:none;font-family:Bitstream Vera Sans"
       x="124.49855"
       y="274.55988"
       id="text4869-4-8"
       transform="scale(1.0382262,0.96318125)"><tspan
         sodipodi:role="line"
         id="tspan4871-6-4"
         x="124.49855"
         y="274.55988">1,3</tspan></text>
    <text
       xml:space="preserve"
       style="font-size:18.72601509px;font-style:normal;font-weight:normal;fill:#000000;fill-opacity:1;stroke:none;font-family:Bitstream Vera Sans"
       x="175.12468"
       y="274.55988"
       id="text4869-45-4"
       transform="scale(1.0382262,0.96318125)"><tspan
         sodipodi:role="line"
         id="tspan4871-2-7"
         x="175.12468"
         y="274.55988">2,3</tspan></text>
    <text
       xml:space="preserve"
       style="font-size:18.72601509px;font-style:normal;font-weight:normal;fill:#000000;fill-opacity:1;stroke:none;font-family:Bitstream Vera Sans"
       x="226.02519"
       y="274.55988"
       id="text4869-33-3"
       transform="scale(1.0382262,0.96318125)"><tspan
         sodipodi:role="line"
         id="tspan4871-5-6"
         x="226.02519"
         y="274.55988">3,3</tspan></text>
    <text
       xml:space="preserve"
       style="font-size:18.72601509px;font-style:normal;font-weight:normal;fill:#000000;fill-opacity:1;stroke:none;font-family:Bitstream Vera Sans"
       x="275.55038"
       y="274.55988"
       id="text4869-5-7"
       transform="scale(1.0382262,0.96318125)"><tspan
         sodipodi:role="line"
         id="tspan4871-9-8"
         x="275.55038"
         y="274.55988">4,3</tspan></text>
    <flowRoot
       xml:space="preserve"
       id="flowRoot5056"
       style="font-size:40px;font-style:normal;font-weight:normal;fill:#000000;fill-opacity:1;stroke:none;font-family:Bitstream Vera Sans"><flowRegion
         id="flowRegion5058"><rect
           id="rect5060"
           width="382.20972"
           height="393.35037"
           x="-57.417156"
           y="561.31696" /></flowRegion><flowPara
         id="flowPara5062" /></flowRoot>    <flowRoot
       xml:space="preserve"
       id="flowRoot5064"
       style="font-size:40px;font-style:normal;font-weight:normal;fill:#000000;fill-opacity:1;stroke:none;font-family:Bitstream Vera Sans"><flowRegion
         id="flowRegion5066"><rect
           id="rect5068"
           width="252.80687"
           height="233.95348"
           x="-29.994036"
           y="614.44928" /></flowRegion><flowPara
         id="flowPara5070" /></flowRoot>    <rect
       style="fill:#afafe9;fill-opacity:1;fill-rule:nonzero;stroke:none"
       id="rect3935-3"
       width="233.18597"
       height="176.89157"
       x="410.0166"
       y="226.06311" />
    <g
       id="g5331-2"
       transform="translate(397.35989,-182.81044)"
       style="fill:#4d4d4d;filter:url(#filter5427)">
      <rect
         y="455.74603"
         x="55.249081"
         height="50"
         width="50"
         id="rect3933-2-8"
         style="fill:#4d4d4d;fill-opacity:1;fill-rule:nonzero;stroke:none" />
      <rect
         y="455.74603"
         x="107.24908"
         height="50"
         width="50"
         id="rect3933-1-28-5"
         style="fill:#4d4d4d;fill-opacity:1;fill-rule:nonzero;stroke:none" />
      <rect
         y="455.74603"
         x="159.24908"
         height="50"
         width="50"
         id="rect3933-8-1-1"
         style="fill:#4d4d4d;fill-opacity:1;fill-rule:nonzero;stroke:none" />
      <rect
         y="507.74603"
         x="55.249081"
         height="50"
         width="50"
         id="rect3933-3-4-5"
         style="fill:#4d4d4d;fill-opacity:1;fill-rule:nonzero;stroke:none" />
      <rect
         y="507.74603"
         x="107.24908"
         height="50"
         width="50"
         id="rect3933-1-8-5-4"
         style="fill:#4d4d4d;fill-opacity:1;fill-rule:nonzero;stroke:none" />
      <rect
         y="507.74603"
         x="159.24908"
         height="50"
         width="50"
         id="rect3933-8-0-5-1"
         style="fill:#4d4d4d;fill-opacity:1;fill-rule:nonzero;stroke:none" />
      <text
         transform="scale(1.0382262,0.96318125)"
         id="text4869-9-4"
         y="505.03674"
         x="62.57682"
         style="font-size:18.72601509px;font-style:normal;font-weight:normal;fill:#4d4d4d;fill-opacity:1;stroke:none;font-family:Bitstream Vera Sans"
         xml:space="preserve"><tspan
           y="505.03674"
           x="62.57682"
           id="tspan4871-57-0"
           sodipodi:role="line">0,0</tspan></text>
      <text
         transform="scale(1.0382262,0.96318125)"
         id="text4869-4-86-2"
         y="505.03674"
         x="111.03495"
         style="font-size:18.72601509px;font-style:normal;font-weight:normal;fill:#4d4d4d;fill-opacity:1;stroke:none;font-family:Bitstream Vera Sans"
         xml:space="preserve"><tspan
           y="505.03674"
           x="111.03495"
           id="tspan4871-6-1-5"
           sodipodi:role="line">1,0</tspan></text>
      <text
         transform="scale(1.0382262,0.96318125)"
         id="text4869-45-9-1"
         y="505.03674"
         x="161.66107"
         style="font-size:18.72601509px;font-style:normal;font-weight:normal;fill:#4d4d4d;fill-opacity:1;stroke:none;font-family:Bitstream Vera Sans"
         xml:space="preserve"><tspan
           y="505.03674"
           x="161.66107"
           id="tspan4871-2-9-7"
           sodipodi:role="line">2,0</tspan></text>
      <text
         transform="scale(1.0382262,0.96318125)"
         id="text4869-1-3-7"
         y="556.56818"
         x="63.29969"
         style="font-size:18.72601509px;font-style:normal;font-weight:normal;fill:#4d4d4d;fill-opacity:1;stroke:none;font-family:Bitstream Vera Sans"
         xml:space="preserve"><tspan
           y="556.56818"
           x="63.29969"
           id="tspan4871-50-2-9"
           sodipodi:role="line">0,1</tspan></text>
      <text
         transform="scale(1.0382262,0.96318125)"
         id="text4869-4-6-8-7"
         y="556.56818"
         x="111.75782"
         style="font-size:18.72601509px;font-style:normal;font-weight:normal;fill:#4d4d4d;fill-opacity:1;stroke:none;font-family:Bitstream Vera Sans"
         xml:space="preserve"><tspan
           y="556.56818"
           x="111.75782"
           id="tspan4871-6-6-0-1"
           sodipodi:role="line">1,1</tspan></text>
      <text
         transform="scale(1.0382262,0.96318125)"
         id="text4869-45-2-5-0"
         y="556.56818"
         x="162.38394"
         style="font-size:18.72601509px;font-style:normal;font-weight:normal;fill:#4d4d4d;fill-opacity:1;stroke:none;font-family:Bitstream Vera Sans"
         xml:space="preserve"><tspan
           y="556.56818"
           x="162.38394"
           id="tspan4871-2-6-8-3"
           sodipodi:role="line">2,1</tspan></text>
    </g>
    <g
       id="g5331"
       transform="translate(392.49338,-189.39092)">
      <rect
         y="455.74603"
         x="55.249081"
         height="50"
         width="50"
         id="rect3933-2"
         style="fill:#c8c8be;fill-opacity:1;fill-rule:nonzero;stroke:none" />
      <rect
         y="455.74603"
         x="107.24908"
         height="50"
         width="50"
         id="rect3933-1-28"
         style="fill:#c8c8be;fill-opacity:1;fill-rule:nonzero;stroke:none" />
      <rect
         y="455.74603"
         x="159.24908"
         height="50"
         width="50"
         id="rect3933-8-1"
         style="fill:#c8c8be;fill-opacity:1;fill-rule:nonzero;stroke:none" />
      <rect
         y="507.74603"
         x="55.249081"
         height="50"
         width="50"
         id="rect3933-3-4"
         style="fill:#c8c8be;fill-opacity:1;fill-rule:nonzero;stroke:none" />
      <rect
         y="507.74603"
         x="107.24908"
         height="50"
         width="50"
         id="rect3933-1-8-5"
         style="fill:#c8c8be;fill-opacity:1;fill-rule:nonzero;stroke:none" />
      <rect
         y="507.74603"
         x="159.24908"
         height="50"
         width="50"
         id="rect3933-8-0-5"
         style="fill:#b9ff00;fill-opacity:1;fill-rule:nonzero;stroke:none" />
      <text
         transform="scale(1.0382262,0.96318125)"
         id="text4869-9"
         y="505.03674"
         x="62.57682"
         style="font-size:18.72601509px;font-style:normal;font-weight:normal;fill:#000000;fill-opacity:1;stroke:none;font-family:Bitstream Vera Sans"
         xml:space="preserve"><tspan
           y="505.03674"
           x="62.57682"
           id="tspan4871-57"
           sodipodi:role="line">0,0</tspan></text>
      <text
         transform="scale(1.0382262,0.96318125)"
         id="text4869-4-86"
         y="505.03674"
         x="111.03495"
         style="font-size:18.72601509px;font-style:normal;font-weight:normal;fill:#000000;fill-opacity:1;stroke:none;font-family:Bitstream Vera Sans"
         xml:space="preserve"><tspan
           y="505.03674"
           x="111.03495"
           id="tspan4871-6-1"
           sodipodi:role="line">1,0</tspan></text>
      <text
         transform="scale(1.0382262,0.96318125)"
         id="text4869-45-9"
         y="505.03674"
         x="161.66107"
         style="font-size:18.72601509px;font-style:normal;font-weight:normal;fill:#000000;fill-opacity:1;stroke:none;font-family:Bitstream Vera Sans"
         xml:space="preserve"><tspan
           y="505.03674"
           x="161.66107"
           id="tspan4871-2-9"
           sodipodi:role="line">2,0</tspan></text>
      <text
         transform="scale(1.0382262,0.96318125)"
         id="text4869-1-3"
         y="556.56818"
         x="63.29969"
         style="font-size:18.72601509px;font-style:normal;font-weight:normal;fill:#000000;fill-opacity:1;stroke:none;font-family:Bitstream Vera Sans"
         xml:space="preserve"><tspan
           y="556.56818"
           x="63.29969"
           id="tspan4871-50-2"
           sodipodi:role="line">0,1</tspan></text>
      <text
         transform="scale(1.0382262,0.96318125)"
         id="text4869-4-6-8"
         y="556.56818"
         x="111.75782"
         style="font-size:18.72601509px;font-style:normal;font-weight:normal;fill:#000000;fill-opacity:1;stroke:none;font-family:Bitstream Vera Sans"
         xml:space="preserve"><tspan
           y="556.56818"
           x="111.75782"
           id="tspan4871-6-6-0"
           sodipodi:role="line">1,1</tspan></text>
      <text
         transform="scale(1.0382262,0.96318125)"
         id="text4869-45-2-5"
         y="556.56818"
         x="162.38394"
         style="font-size:18.72601509px;font-style:normal;font-weight:normal;fill:#000000;fill-opacity:1;stroke:none;font-family:Bitstream Vera Sans"
         xml:space="preserve"><tspan
           y="556.56818"
           x="162.38394"
           id="tspan4871-2-6-8"
           sodipodi:role="line">2,1</tspan></text>
    </g>
    <text
       xml:space="preserve"
       style="font-size:37.65587616px;font-style:normal;font-weight:normal;fill:#000000;fill-opacity:1;stroke:none;font-family:Bitstream Vera Sans"
       x="406.46729"
       y="264.34653"
       id="text4451-0"
       transform="scale(1.0266588,0.97403345)"><tspan
         sodipodi:role="line"
         id="tspan4453-8"
         x="406.46729"
         y="264.34653">block</tspan></text>
    <rect
       style="fill:#b9ff00;fill-opacity:1;fill-rule:nonzero;stroke:none"
       id="rect3933-8-0-5-8"
       width="100"
       height="100"
       x="539.46954"
       y="40.982067" />
    <text
       xml:space="preserve"
       style="font-size:26.03358078px;font-style:normal;font-weight:normal;fill:#000000;fill-opacity:1;stroke:none;font-family:Bitstream Vera Sans"
       x="563.1651"
       y="97.066254"
       id="text5550"
       transform="scale(0.97459039,1.0260721)"><tspan
         sodipodi:role="line"
         id="tspan5552"
         x="563.1651"
         y="97.066254">thread</tspan></text>
    <path
       style="fill:none;stroke:#000000;stroke-width:5;stroke-linecap:butt;stroke-linejoin:miter;stroke-miterlimit:4;stroke-opacity:1;stroke-dasharray:none;marker-end:url(#Arrow1Mend)"
       d="m 263.20544,140.17487 c 0,0 6.42205,-19.38531 60.6312,3.0143 53.47378,22.09575 109.67796,58.26364 109.67796,58.26364"
       id="path5594"
       sodipodi:nodetypes="czc" />
    <path
       style="fill:none;stroke:#000000;stroke-width:5.1355629;stroke-linecap:butt;stroke-linejoin:miter;stroke-miterlimit:4;stroke-opacity:1;stroke-dasharray:none;marker-end:url(#Arrow1Mend)"
       d="m 607.53097,345.22607 c 0,0 21.35225,2.0365 20.59933,-57.063 -0.74269,-58.29782 -14.11628,-124.8805 -14.11628,-124.8805"
       id="path5594-0"
       sodipodi:nodetypes="czc" />
  </g>
</svg>
