<?xml version="1.0" encoding="UTF-8"?>
<svg xmlns="http://www.w3.org/2000/svg"
    xmlns:latexdraw="http://latexdraw.sourceforge.net/namespaces/latexdraw"
    version="1.1" baseProfile="full">
    <defs/>
    <g>
        <g latexdraw:type="text" id="id24" font-family="Dialog"
            fill="black" font-size="18" latexdraw:x="67.226563">
            <text x="67.226563" y="71.03417999999999"><![CDATA[$v_{i,j},\; p^{n+1}_{i,j},\; p^{n}_{i,j},\; p^{n-1}_{i,j}$]]></text>
        </g>
        <g latexdraw:type="drawing" id="id27">
            <g latexdraw:type="line" id="id28">
                <line x1="75.226563" x2="75.226563"
                    y1="65.03417999999999" y2="185.03418"
                    stroke-width="2.0" stroke="black" latexdraw:rotationAngle="0.0"/>
            </g>
            <g latexdraw:type="line" id="id29">
                <line x1="115.226563" x2="115.226563"
                    y1="65.03417999999999" y2="185.03418"
                    stroke-width="2.0" stroke="black" latexdraw:rotationAngle="0.0"/>
            </g>
            <g latexdraw:type="line" id="id30">
                <line x1="155.226563" x2="155.226563"
                    y1="65.03417999999999" y2="185.03418"
                    stroke-width="2.0" stroke="black" latexdraw:rotationAngle="0.0"/>
            </g>
            <g latexdraw:type="line" id="id31">
                <line x1="55.226563" x2="175.226563"
                    y1="85.03417999999999" y2="85.03417999999999"
                    stroke-width="2.0" stroke="black" latexdraw:rotationAngle="0.0"/>
            </g>
            <g latexdraw:type="line" id="id32">
                <line x1="55.226563" x2="175.226563"
                    y1="125.03417999999999" y2="125.03417999999999"
                    stroke-width="2.0" stroke="black" latexdraw:rotationAngle="0.0"/>
            </g>
            <g latexdraw:type="line" id="id33">
                <line x1="55.226563" x2="175.226563" y1="165.03418"
                    y2="165.03418" stroke-width="2.0" stroke="black" latexdraw:rotationAngle="0.0"/>
            </g>
        </g>
        <g latexdraw:type="text" id="id35" font-family="Dialog"
            fill="black" font-size="18" latexdraw:x="135.226563">
            <text x="135.226563" y="55.03418"><![CDATA[$i+1$]]></text>
        </g>
        <g latexdraw:type="text" id="id37" font-family="Dialog"
            fill="black" font-size="18" latexdraw:x="55.226563">
            <text x="55.226563" y="55.03418"><![CDATA[$i-1$]]></text>
        </g>
        <g latexdraw:type="text" id="id39" font-family="Dialog"
            fill="black" font-size="18" latexdraw:x="105.226563">
            <text x="105.226563" y="55.03418"><![CDATA[$i$]]></text>
        </g>
        <g latexdraw:type="circle" id="id41">
            <circle cx="75.726563" cy="85.53417999999999" r="6.5"
                latexdraw:borderPos="outer" stroke-width="2.0"
                stroke="black" fill="red"/>
        </g>
        <g latexdraw:type="circle" id="id43">
            <circle cx="115.726563" cy="85.53417999999999" r="6.5"
                latexdraw:borderPos="outer" stroke-width="2.0"
                stroke="black" fill="red"/>
        </g>
        <g latexdraw:type="circle" id="id45">
            <circle cx="75.726563" cy="125.53417999999999" r="6.5"
                latexdraw:borderPos="outer" stroke-width="2.0"
                stroke="black" fill="red"/>
        </g>
        <g latexdraw:type="circle" id="id47">
            <circle cx="75.726563" cy="165.53418" r="6.5"
                latexdraw:borderPos="outer" stroke-width="2.0"
                stroke="black" fill="red"/>
        </g>
        <g latexdraw:type="circle" id="id49">
            <circle cx="115.726563" cy="125.53417999999999" r="6.5"
                latexdraw:borderPos="outer" stroke-width="2.0"
                stroke="black" fill="red"/>
        </g>
        <g latexdraw:type="circle" id="id51">
            <circle cx="115.726563" cy="165.53418" r="6.5"
                latexdraw:borderPos="outer" stroke-width="2.0"
                stroke="black" fill="red"/>
        </g>
        <g latexdraw:type="circle" id="id53">
            <circle cx="155.726563" cy="85.53417999999999" r="6.5"
                latexdraw:borderPos="outer" stroke-width="2.0"
                stroke="black" fill="red"/>
        </g>
        <g latexdraw:type="circle" id="id55">
            <circle cx="155.726563" cy="125.53417999999999" r="6.5"
                latexdraw:borderPos="outer" stroke-width="2.0"
                stroke="black" fill="red"/>
        </g>
        <g latexdraw:type="circle" id="id57">
            <circle cx="155.726563" cy="165.53418" r="6.5"
                latexdraw:borderPos="outer" stroke-width="2.0"
                stroke="black" fill="red"/>
        </g>
        <g latexdraw:type="text" id="id59" font-family="Dialog"
            fill="black" font-size="18" latexdraw:x="27.226563">
            <text x="27.226563" y="131.03418"><![CDATA[$j$]]></text>
        </g>
        <g latexdraw:type="text" id="id61" font-family="Dialog"
            fill="black" font-size="18" latexdraw:x="17.226563">
            <text x="17.226563" y="91.03417999999999"><![CDATA[$j-1$]]></text>
        </g>
        <g latexdraw:type="text" id="id63" font-family="Dialog"
            fill="black" font-size="18" latexdraw:x="15.226562999999999">
            <text x="15.226562999999999" y="171.03418"><![CDATA[$j+1$]]></text>
        </g>
        <g latexdraw:type="circle" id="id65">
            <circle cx="219.726563" cy="63.53417999999999" r="6.5"
                latexdraw:borderPos="outer" stroke-width="2.0"
                stroke="black" fill="red"/>
        </g>
        <g latexdraw:type="line" id="id67">
            <line x1="199.226563" x2="199.226563"
                y1="125.03417999999999" y2="137.03418"
                stroke-width="2.0" stroke="black" latexdraw:rotationAngle="0.0"/>
        </g>
        <g latexdraw:type="line" id="id68">
            <line x1="199.226563" x2="199.226563" y1="155.03418"
                y2="165.03418" stroke-width="2.0" stroke="black" latexdraw:rotationAngle="0.0"/>
        </g>
        <g latexdraw:type="text" id="id69" font-family="Dialog"
            fill="black" font-size="18" latexdraw:x="155.226563">
            <text x="155.226563" y="151.03418"><![CDATA[$\delta y$]]></text>
        </g>
        <g latexdraw:type="line" id="id72">
            <line x1="193.226563" x2="205.226563"
                y1="125.03417999999999" y2="125.03417999999999"
                stroke-width="2.0" stroke="black" latexdraw:rotationAngle="0.0"/>
        </g>
        <g latexdraw:type="line" id="id73">
            <line x1="193.226563" x2="205.226563" y1="165.03418"
                y2="165.03418" stroke-width="2.0" stroke="black" latexdraw:rotationAngle="0.0"/>
        </g>
        <g latexdraw:type="text" id="id74" font-family="Dialog"
            fill="black" font-size="18" latexdraw:x="93.226563">
            <text x="93.226563" y="201.03418"><![CDATA[$\delta x$]]></text>
        </g>
        <g latexdraw:type="line" id="id76">
            <line x1="115.226563" x2="115.226563" y1="191.03418"
                y2="201.03418" stroke-width="2.0" stroke="black" latexdraw:rotationAngle="0.0"/>
        </g>
        <g latexdraw:type="line" id="id77">
            <line x1="155.226563" x2="155.226563" y1="189.03418"
                y2="201.03418" stroke-width="2.0" stroke="black" latexdraw:rotationAngle="0.0"/>
        </g>
        <g latexdraw:type="line" id="id78">
            <line x1="115.226563" x2="125.226563" y1="195.03418"
                y2="195.03418" stroke-width="2.0" stroke="black" latexdraw:rotationAngle="0.0"/>
        </g>
        <g latexdraw:type="line" id="id79">
            <line x1="147.226563" x2="155.226563" y1="195.03418"
                y2="195.03418" stroke-width="2.0" stroke="black" latexdraw:rotationAngle="0.0"/>
        </g>
    </g>
    <metadata>
        <latexdraw:metadata>
            <latexdraw:displayBorders>false</latexdraw:displayBorders>
            <latexdraw:autoAdjust>true</latexdraw:autoAdjust>
            <latexdraw:ppc>50</latexdraw:ppc>
            <latexdraw:zoom>2.0</latexdraw:zoom>
            <latexdraw:unit>cm</latexdraw:unit>
            <latexdraw:classicGrid>false</latexdraw:classicGrid>
            <latexdraw:gridGap>2</latexdraw:gridGap>
            <latexdraw:code>0</latexdraw:code>
            <latexdraw:displayGrid>true</latexdraw:displayGrid>
            <latexdraw:magneticGrid>true</latexdraw:magneticGrid>
            <latexdraw:autoUpdate>true</latexdraw:autoUpdate>
            <latexdraw:version>2.0.8</latexdraw:version>
            <latexdraw:size>
                <latexdraw:width>2620</latexdraw:width>
                <latexdraw:height>1848</latexdraw:height>
            </latexdraw:size>
            <latexdraw:position>
                <latexdraw:x>41</latexdraw:x>
                <latexdraw:y>31</latexdraw:y>
            </latexdraw:position>
            <latexdraw:dividerPosition>0.5362595419847328</latexdraw:dividerPosition>
            <latexdraw:displayCodePanel>true</latexdraw:displayCodePanel>
            <latexdraw:displayXScale>true</latexdraw:displayXScale>
            <latexdraw:displayYScale>true</latexdraw:displayYScale>
            <latexdraw:delimitorOpacity>130</latexdraw:delimitorOpacity>
        </latexdraw:metadata>
    </metadata>
</svg>
