<?xml version="1.0" encoding="UTF-8" standalone="no"?>
<!-- Created with Inkscape (http://www.inkscape.org/) -->

<svg
   xmlns:dc="http://purl.org/dc/elements/1.1/"
   xmlns:cc="http://creativecommons.org/ns#"
   xmlns:rdf="http://www.w3.org/1999/02/22-rdf-syntax-ns#"
   xmlns:svg="http://www.w3.org/2000/svg"
   xmlns="http://www.w3.org/2000/svg"
   xmlns:sodipodi="http://sodipodi.sourceforge.net/DTD/sodipodi-0.dtd"
   xmlns:inkscape="http://www.inkscape.org/namespaces/inkscape"
   width="2405"
   height="879.3056"
   id="svg2"
   version="1.1"
   inkscape:version="0.47 r22583"
   sodipodi:docname="row-major-matrix_b.svg">
  <defs
     id="defs4">
    <inkscape:perspective
       sodipodi:type="inkscape:persp3d"
       inkscape:vp_x="0 : 526.18109 : 1"
       inkscape:vp_y="0 : 1000 : 0"
       inkscape:vp_z="744.09448 : 526.18109 : 1"
       inkscape:persp3d-origin="372.04724 : 350.78739 : 1"
       id="perspective10" />
    <inkscape:perspective
       id="perspective3598"
       inkscape:persp3d-origin="0.5 : 0.33333333 : 1"
       inkscape:vp_z="1 : 0.5 : 1"
       inkscape:vp_y="0 : 1000 : 0"
       inkscape:vp_x="0 : 0.5 : 1"
       sodipodi:type="inkscape:persp3d" />
    <inkscape:perspective
       id="perspective3622"
       inkscape:persp3d-origin="0.5 : 0.33333333 : 1"
       inkscape:vp_z="1 : 0.5 : 1"
       inkscape:vp_y="0 : 1000 : 0"
       inkscape:vp_x="0 : 0.5 : 1"
       sodipodi:type="inkscape:persp3d" />
    <inkscape:perspective
       id="perspective3622-3"
       inkscape:persp3d-origin="0.5 : 0.33333333 : 1"
       inkscape:vp_z="1 : 0.5 : 1"
       inkscape:vp_y="0 : 1000 : 0"
       inkscape:vp_x="0 : 0.5 : 1"
       sodipodi:type="inkscape:persp3d" />
    <inkscape:perspective
       id="perspective3657"
       inkscape:persp3d-origin="0.5 : 0.33333333 : 1"
       inkscape:vp_z="1 : 0.5 : 1"
       inkscape:vp_y="0 : 1000 : 0"
       inkscape:vp_x="0 : 0.5 : 1"
       sodipodi:type="inkscape:persp3d" />
    <inkscape:perspective
       id="perspective3657-2"
       inkscape:persp3d-origin="0.5 : 0.33333333 : 1"
       inkscape:vp_z="1 : 0.5 : 1"
       inkscape:vp_y="0 : 1000 : 0"
       inkscape:vp_x="0 : 0.5 : 1"
       sodipodi:type="inkscape:persp3d" />
    <inkscape:perspective
       id="perspective3657-0"
       inkscape:persp3d-origin="0.5 : 0.33333333 : 1"
       inkscape:vp_z="1 : 0.5 : 1"
       inkscape:vp_y="0 : 1000 : 0"
       inkscape:vp_x="0 : 0.5 : 1"
       sodipodi:type="inkscape:persp3d" />
    <inkscape:perspective
       id="perspective3718"
       inkscape:persp3d-origin="0.5 : 0.33333333 : 1"
       inkscape:vp_z="1 : 0.5 : 1"
       inkscape:vp_y="0 : 1000 : 0"
       inkscape:vp_x="0 : 0.5 : 1"
       sodipodi:type="inkscape:persp3d" />
    <inkscape:perspective
       id="perspective3718-3"
       inkscape:persp3d-origin="0.5 : 0.33333333 : 1"
       inkscape:vp_z="1 : 0.5 : 1"
       inkscape:vp_y="0 : 1000 : 0"
       inkscape:vp_x="0 : 0.5 : 1"
       sodipodi:type="inkscape:persp3d" />
    <inkscape:perspective
       id="perspective3718-0"
       inkscape:persp3d-origin="0.5 : 0.33333333 : 1"
       inkscape:vp_z="1 : 0.5 : 1"
       inkscape:vp_y="0 : 1000 : 0"
       inkscape:vp_x="0 : 0.5 : 1"
       sodipodi:type="inkscape:persp3d" />
    <inkscape:perspective
       id="perspective2878"
       inkscape:persp3d-origin="0.5 : 0.33333333 : 1"
       inkscape:vp_z="1 : 0.5 : 1"
       inkscape:vp_y="0 : 1000 : 0"
       inkscape:vp_x="0 : 0.5 : 1"
       sodipodi:type="inkscape:persp3d" />
    <inkscape:perspective
       id="perspective2935"
       inkscape:persp3d-origin="0.5 : 0.33333333 : 1"
       inkscape:vp_z="1 : 0.5 : 1"
       inkscape:vp_y="0 : 1000 : 0"
       inkscape:vp_x="0 : 0.5 : 1"
       sodipodi:type="inkscape:persp3d" />
  </defs>
  <sodipodi:namedview
     id="base"
     pagecolor="#ffffff"
     bordercolor="#666666"
     borderopacity="1.0"
     inkscape:pageopacity="0.0"
     inkscape:pageshadow="2"
     inkscape:zoom="0.46289425"
     inkscape:cx="1028.1114"
     inkscape:cy="-50.9619"
     inkscape:document-units="px"
     inkscape:current-layer="layer1"
     showgrid="false"
     inkscape:window-width="1471"
     inkscape:window-height="1231"
     inkscape:window-x="227"
     inkscape:window-y="246"
     inkscape:window-maximized="0" />
  <metadata
     id="metadata7">
    <rdf:RDF>
      <cc:Work
         rdf:about="">
        <dc:format>image/svg+xml</dc:format>
        <dc:type
           rdf:resource="http://purl.org/dc/dcmitype/StillImage" />
        <dc:title />
      </cc:Work>
    </rdf:RDF>
  </metadata>
  <g
     inkscape:label="Layer 1"
     inkscape:groupmode="layer"
     id="layer1"
     transform="translate(68.214287,-309.84222)">
    <g
       id="g3696">
      <rect
         y="1036.6478"
         x="-65.714287"
         height="150"
         width="150"
         id="rect2816"
         style="fill:#ffff00;fill-opacity:1;fill-rule:nonzero;stroke:#000000;stroke-width:5;stroke-linecap:round;stroke-linejoin:round;stroke-miterlimit:4;stroke-opacity:1;stroke-dasharray:none;stroke-dashoffset:0" />
      <rect
         y="1036.6478"
         x="84.285713"
         height="150"
         width="150"
         id="rect2816-5"
         style="fill:#ffff00;fill-opacity:1;fill-rule:nonzero;stroke:#000000;stroke-width:5;stroke-linecap:round;stroke-linejoin:round;stroke-miterlimit:4;stroke-opacity:1;stroke-dasharray:none;stroke-dashoffset:0" />
      <rect
         y="1036.6478"
         x="234.28571"
         height="150"
         width="150"
         id="rect2816-5-7"
         style="fill:#ffff00;fill-opacity:1;fill-rule:nonzero;stroke:#000000;stroke-width:5;stroke-linecap:round;stroke-linejoin:round;stroke-miterlimit:4;stroke-opacity:1;stroke-dasharray:none;stroke-dashoffset:0" />
      <rect
         y="1036.6478"
         x="384.28571"
         height="150"
         width="150"
         id="rect2816-5-5"
         style="fill:#ffff00;fill-opacity:1;fill-rule:nonzero;stroke:#000000;stroke-width:5;stroke-linecap:round;stroke-linejoin:round;stroke-miterlimit:4;stroke-opacity:1;stroke-dasharray:none;stroke-dashoffset:0" />
      <text
         transform="scale(0.97204808,1.0287557)"
         id="text3645"
         y="1092.5499"
         x="-49.899158"
         style="font-size:38.19978333px;font-style:normal;font-weight:normal;fill:#000000;fill-opacity:1;stroke:none;font-family:Bitstream Vera Sans"
         xml:space="preserve"><tspan
           y="1092.5499"
           x="-49.899158"
           id="tspan3647"
           sodipodi:role="line">A(0,0)</tspan></text>
      <text
         transform="scale(0.97204808,1.0287557)"
         id="text3645-0"
         y="1092.5499"
         x="104.4142"
         style="font-size:38.19978333px;font-style:normal;font-weight:normal;fill:#000000;fill-opacity:1;stroke:none;font-family:Bitstream Vera Sans"
         xml:space="preserve"><tspan
           y="1092.5499"
           x="104.4142"
           id="tspan3647-3"
           sodipodi:role="line">A(0,1)</tspan></text>
      <text
         transform="scale(0.97204808,1.0287557)"
         id="text3645-3"
         y="1092.5499"
         x="258.72754"
         style="font-size:38.19978333px;font-style:normal;font-weight:normal;fill:#000000;fill-opacity:1;stroke:none;font-family:Bitstream Vera Sans"
         xml:space="preserve"><tspan
           y="1092.5499"
           x="258.72754"
           id="tspan3647-35"
           sodipodi:role="line">A(0,2)</tspan></text>
      <text
         transform="scale(0.97204808,1.0287557)"
         id="text3645-4"
         y="1092.5499"
         x="413.04089"
         style="font-size:38.19978333px;font-style:normal;font-weight:normal;fill:#000000;fill-opacity:1;stroke:none;font-family:Bitstream Vera Sans"
         xml:space="preserve"><tspan
           y="1092.5499"
           x="413.04089"
           id="tspan3647-7"
           sodipodi:role="line">A(0,3)</tspan></text>
    </g>
    <g
       id="g3933"
       transform="translate(600,-150.00003)">
      <rect
         y="1186.6478"
         x="-65.714287"
         height="150"
         width="150"
         id="rect2816-4"
         style="fill:#ff0000;fill-opacity:1;fill-rule:nonzero;stroke:#000000;stroke-width:5;stroke-linecap:round;stroke-linejoin:round;stroke-miterlimit:4;stroke-opacity:1;stroke-dasharray:none;stroke-dashoffset:0" />
      <rect
         y="1186.6478"
         x="84.285713"
         height="150"
         width="150"
         id="rect2816-5-9"
         style="fill:#ff0000;fill-opacity:1;fill-rule:nonzero;stroke:#000000;stroke-width:5;stroke-linecap:round;stroke-linejoin:round;stroke-miterlimit:4;stroke-opacity:1;stroke-dasharray:none;stroke-dashoffset:0" />
      <rect
         y="1186.6478"
         x="234.28571"
         height="150"
         width="150"
         id="rect2816-5-7-0"
         style="fill:#ff0000;fill-opacity:1;fill-rule:nonzero;stroke:#000000;stroke-width:5;stroke-linecap:round;stroke-linejoin:round;stroke-miterlimit:4;stroke-opacity:1;stroke-dasharray:none;stroke-dashoffset:0" />
      <rect
         y="1186.6478"
         x="384.28571"
         height="150"
         width="150"
         id="rect2816-5-5-0"
         style="fill:#ff0000;fill-opacity:1;fill-rule:nonzero;stroke:#000000;stroke-width:5;stroke-linecap:round;stroke-linejoin:round;stroke-miterlimit:4;stroke-opacity:1;stroke-dasharray:none;stroke-dashoffset:0" />
      <text
         transform="scale(0.97204808,1.0287557)"
         id="text3645-2"
         y="1238.3572"
         x="-49.899158"
         style="font-size:38.19978333px;font-style:normal;font-weight:normal;fill:#ffffff;fill-opacity:1;stroke:none;font-family:Bitstream Vera Sans"
         xml:space="preserve"><tspan
           y="1238.3572"
           x="-49.899158"
           id="tspan3647-6"
           sodipodi:role="line">A(1,0)</tspan></text>
      <text
         transform="scale(0.97204808,1.0287557)"
         id="text3645-0-2"
         y="1238.3572"
         x="104.4142"
         style="font-size:38.19978333px;font-style:normal;font-weight:normal;fill:#ffffff;fill-opacity:1;stroke:none;font-family:Bitstream Vera Sans"
         xml:space="preserve"><tspan
           y="1238.3572"
           x="104.4142"
           id="tspan3647-3-8"
           sodipodi:role="line">A(1,1)</tspan></text>
      <text
         transform="scale(0.97204808,1.0287557)"
         id="text3645-3-1"
         y="1238.3572"
         x="258.72754"
         style="font-size:38.19978333px;font-style:normal;font-weight:normal;fill:#ffffff;fill-opacity:1;stroke:none;font-family:Bitstream Vera Sans"
         xml:space="preserve"><tspan
           y="1238.3572"
           x="258.72754"
           id="tspan3647-35-2"
           sodipodi:role="line">A(1,2)</tspan></text>
      <text
         transform="scale(0.97204808,1.0287557)"
         id="text3645-4-4"
         y="1238.3572"
         x="413.04089"
         style="font-size:38.19978333px;font-style:normal;font-weight:normal;fill:#ffffff;fill-opacity:1;stroke:none;font-family:Bitstream Vera Sans"
         xml:space="preserve"><tspan
           y="1238.3572"
           x="413.04089"
           id="tspan3647-7-5"
           sodipodi:role="line">A(1,3)</tspan></text>
    </g>
    <g
       id="g3947"
       transform="translate(1200,-300.00003)">
      <rect
         y="1336.6478"
         x="-65.714287"
         height="150"
         width="150"
         id="rect2816-43"
         style="fill:#0000ff;fill-opacity:1;fill-rule:nonzero;stroke:#000000;stroke-width:5;stroke-linecap:round;stroke-linejoin:round;stroke-miterlimit:4;stroke-opacity:1;stroke-dasharray:none;stroke-dashoffset:0" />
      <rect
         y="1336.6478"
         x="84.285713"
         height="150"
         width="150"
         id="rect2816-5-1"
         style="fill:#0000ff;fill-opacity:1;fill-rule:nonzero;stroke:#000000;stroke-width:5;stroke-linecap:round;stroke-linejoin:round;stroke-miterlimit:4;stroke-opacity:1;stroke-dasharray:none;stroke-dashoffset:0" />
      <rect
         y="1336.6478"
         x="234.28571"
         height="150"
         width="150"
         id="rect2816-5-7-2"
         style="fill:#0000ff;fill-opacity:1;fill-rule:nonzero;stroke:#000000;stroke-width:5;stroke-linecap:round;stroke-linejoin:round;stroke-miterlimit:4;stroke-opacity:1;stroke-dasharray:none;stroke-dashoffset:0" />
      <rect
         y="1336.6478"
         x="384.28571"
         height="150"
         width="150"
         id="rect2816-5-5-8"
         style="fill:#0000ff;fill-opacity:1;fill-rule:nonzero;stroke:#000000;stroke-width:5;stroke-linecap:round;stroke-linejoin:round;stroke-miterlimit:4;stroke-opacity:1;stroke-dasharray:none;stroke-dashoffset:0" />
      <text
         transform="scale(0.97204808,1.0287557)"
         id="text3645-1"
         y="1384.1644"
         x="-49.899158"
         style="font-size:38.19978333px;font-style:normal;font-weight:normal;fill:#ffffff;fill-opacity:1;stroke:none;font-family:Bitstream Vera Sans"
         xml:space="preserve"><tspan
           y="1384.1644"
           x="-49.899158"
           id="tspan3647-4"
           sodipodi:role="line">A(2,0)</tspan></text>
      <text
         transform="scale(0.97204808,1.0287557)"
         id="text3645-0-0"
         y="1384.1644"
         x="104.4142"
         style="font-size:38.19978333px;font-style:normal;font-weight:normal;fill:#ffffff;fill-opacity:1;stroke:none;font-family:Bitstream Vera Sans"
         xml:space="preserve"><tspan
           y="1384.1644"
           x="104.4142"
           id="tspan3647-3-7"
           sodipodi:role="line">A(2,1)</tspan></text>
      <text
         transform="scale(0.97204808,1.0287557)"
         id="text3645-3-9"
         y="1384.1644"
         x="258.72754"
         style="font-size:38.19978333px;font-style:normal;font-weight:normal;fill:#ffffff;fill-opacity:1;stroke:none;font-family:Bitstream Vera Sans"
         xml:space="preserve"><tspan
           y="1384.1644"
           x="258.72754"
           id="tspan3647-35-9"
           sodipodi:role="line">A(2,2)</tspan></text>
      <text
         transform="scale(0.97204808,1.0287557)"
         id="text3645-4-5"
         y="1384.1644"
         x="413.04089"
         style="font-size:38.19978333px;font-style:normal;font-weight:normal;fill:#ffffff;fill-opacity:1;stroke:none;font-family:Bitstream Vera Sans"
         xml:space="preserve"><tspan
           y="1384.1644"
           x="413.04089"
           id="tspan3647-7-1"
           sodipodi:role="line">A(2,3)</tspan></text>
    </g>
    <g
       id="g3961"
       transform="translate(1800,-450.00003)">
      <rect
         y="1486.6478"
         x="-65.714287"
         height="150"
         width="150"
         id="rect2816-41"
         style="fill:#00c500;fill-opacity:1;fill-rule:nonzero;stroke:#000000;stroke-width:5;stroke-linecap:round;stroke-linejoin:round;stroke-miterlimit:4;stroke-opacity:1;stroke-dasharray:none;stroke-dashoffset:0" />
      <rect
         y="1486.6478"
         x="84.285713"
         height="150"
         width="150"
         id="rect2816-5-2"
         style="fill:#00c500;fill-opacity:1;fill-rule:nonzero;stroke:#000000;stroke-width:5;stroke-linecap:round;stroke-linejoin:round;stroke-miterlimit:4;stroke-opacity:1;stroke-dasharray:none;stroke-dashoffset:0" />
      <rect
         y="1486.6478"
         x="234.28571"
         height="150"
         width="150"
         id="rect2816-5-7-5"
         style="fill:#00c500;fill-opacity:1;fill-rule:nonzero;stroke:#000000;stroke-width:5;stroke-linecap:round;stroke-linejoin:round;stroke-miterlimit:4;stroke-opacity:1;stroke-dasharray:none;stroke-dashoffset:0" />
      <rect
         y="1486.6478"
         x="384.28571"
         height="150"
         width="150"
         id="rect2816-5-5-00"
         style="fill:#00c500;fill-opacity:1;fill-rule:nonzero;stroke:#000000;stroke-width:5;stroke-linecap:round;stroke-linejoin:round;stroke-miterlimit:4;stroke-opacity:1;stroke-dasharray:none;stroke-dashoffset:0" />
      <text
         transform="scale(0.97204808,1.0287557)"
         id="text3645-7"
         y="1529.9716"
         x="-49.899158"
         style="font-size:38.19978333px;font-style:normal;font-weight:normal;fill:#000000;fill-opacity:1;stroke:none;font-family:Bitstream Vera Sans"
         xml:space="preserve"><tspan
           y="1529.9716"
           x="-49.899158"
           id="tspan3647-42"
           sodipodi:role="line">A(3,0)</tspan></text>
      <text
         transform="scale(0.97204808,1.0287557)"
         id="text3645-0-4"
         y="1529.9716"
         x="104.4142"
         style="font-size:38.19978333px;font-style:normal;font-weight:normal;fill:#000000;fill-opacity:1;stroke:none;font-family:Bitstream Vera Sans"
         xml:space="preserve"><tspan
           y="1529.9716"
           x="104.4142"
           id="tspan3647-3-4"
           sodipodi:role="line">A(3,1)</tspan></text>
      <text
         transform="scale(0.97204808,1.0287557)"
         id="text3645-3-6"
         y="1529.9716"
         x="258.72754"
         style="font-size:38.19978333px;font-style:normal;font-weight:normal;fill:#000000;fill-opacity:1;stroke:none;font-family:Bitstream Vera Sans"
         xml:space="preserve"><tspan
           y="1529.9716"
           x="258.72754"
           id="tspan3647-35-90"
           sodipodi:role="line">A(3,2)</tspan></text>
      <text
         transform="scale(0.97204808,1.0287557)"
         id="text3645-4-0"
         y="1529.9716"
         x="413.04089"
         style="font-size:38.19978333px;font-style:normal;font-weight:normal;fill:#000000;fill-opacity:1;stroke:none;font-family:Bitstream Vera Sans"
         xml:space="preserve"><tspan
           y="1529.9716"
           x="413.04089"
           id="tspan3647-7-9"
           sodipodi:role="line">A(3,3)</tspan></text>
    </g>
    <g
       transform="translate(600.31764,-724.30561)"
       id="g3696-7">
      <rect
         y="1036.6478"
         x="-65.714287"
         height="150"
         width="150"
         id="rect2816-3"
         style="fill:#ffff00;fill-opacity:1;fill-rule:nonzero;stroke:#000000;stroke-width:5;stroke-linecap:round;stroke-linejoin:round;stroke-miterlimit:4;stroke-opacity:1;stroke-dasharray:none;stroke-dashoffset:0" />
      <rect
         y="1036.6478"
         x="84.285713"
         height="150"
         width="150"
         id="rect2816-5-3"
         style="fill:#ffff00;fill-opacity:1;fill-rule:nonzero;stroke:#000000;stroke-width:5;stroke-linecap:round;stroke-linejoin:round;stroke-miterlimit:4;stroke-opacity:1;stroke-dasharray:none;stroke-dashoffset:0" />
      <rect
         y="1036.6478"
         x="234.28571"
         height="150"
         width="150"
         id="rect2816-5-7-9"
         style="fill:#ffff00;fill-opacity:1;fill-rule:nonzero;stroke:#000000;stroke-width:5;stroke-linecap:round;stroke-linejoin:round;stroke-miterlimit:4;stroke-opacity:1;stroke-dasharray:none;stroke-dashoffset:0" />
      <rect
         y="1036.6478"
         x="384.28571"
         height="150"
         width="150"
         id="rect2816-5-5-7"
         style="fill:#ffff00;fill-opacity:1;fill-rule:nonzero;stroke:#000000;stroke-width:5;stroke-linecap:round;stroke-linejoin:round;stroke-miterlimit:4;stroke-opacity:1;stroke-dasharray:none;stroke-dashoffset:0" />
      <text
         transform="scale(0.97204808,1.0287557)"
         id="text3645-5"
         y="1092.5499"
         x="-49.899158"
         style="font-size:38.19978333px;font-style:normal;font-weight:normal;fill:#000000;fill-opacity:1;stroke:none;font-family:Bitstream Vera Sans"
         xml:space="preserve"><tspan
           y="1092.5499"
           x="-49.899158"
           id="tspan3647-76"
           sodipodi:role="line">A(0,0)</tspan></text>
      <text
         transform="scale(0.97204808,1.0287557)"
         id="text3645-0-8"
         y="1092.5499"
         x="104.4142"
         style="font-size:38.19978333px;font-style:normal;font-weight:normal;fill:#000000;fill-opacity:1;stroke:none;font-family:Bitstream Vera Sans"
         xml:space="preserve"><tspan
           y="1092.5499"
           x="104.4142"
           id="tspan3647-3-3"
           sodipodi:role="line">A(0,1)</tspan></text>
      <text
         transform="scale(0.97204808,1.0287557)"
         id="text3645-3-69"
         y="1092.5499"
         x="258.72754"
         style="font-size:38.19978333px;font-style:normal;font-weight:normal;fill:#000000;fill-opacity:1;stroke:none;font-family:Bitstream Vera Sans"
         xml:space="preserve"><tspan
           y="1092.5499"
           x="258.72754"
           id="tspan3647-35-6"
           sodipodi:role="line">A(0,2)</tspan></text>
      <text
         transform="scale(0.97204808,1.0287557)"
         id="text3645-4-45"
         y="1092.5499"
         x="413.04089"
         style="font-size:38.19978333px;font-style:normal;font-weight:normal;fill:#000000;fill-opacity:1;stroke:none;font-family:Bitstream Vera Sans"
         xml:space="preserve"><tspan
           y="1092.5499"
           x="413.04089"
           id="tspan3647-7-2"
           sodipodi:role="line">A(0,3)</tspan></text>
    </g>
    <rect
       style="fill:#ff0000;fill-opacity:1;fill-rule:nonzero;stroke:#000000;stroke-width:5;stroke-linecap:round;stroke-linejoin:round;stroke-miterlimit:4;stroke-opacity:1;stroke-dasharray:none;stroke-dashoffset:0"
       id="rect2816-4-6"
       width="150"
       height="150"
       x="534.60339"
       y="462.34222" />
    <rect
       style="fill:#ff0000;fill-opacity:1;fill-rule:nonzero;stroke:#000000;stroke-width:5;stroke-linecap:round;stroke-linejoin:round;stroke-miterlimit:4;stroke-opacity:1;stroke-dasharray:none;stroke-dashoffset:0"
       id="rect2816-5-9-5"
       width="150"
       height="150"
       x="684.60333"
       y="462.34222" />
    <rect
       style="fill:#ff0000;fill-opacity:1;fill-rule:nonzero;stroke:#000000;stroke-width:5;stroke-linecap:round;stroke-linejoin:round;stroke-miterlimit:4;stroke-opacity:1;stroke-dasharray:none;stroke-dashoffset:0"
       id="rect2816-5-7-0-6"
       width="150"
       height="150"
       x="834.60339"
       y="462.34222" />
    <rect
       style="fill:#ff0000;fill-opacity:1;fill-rule:nonzero;stroke:#000000;stroke-width:5;stroke-linecap:round;stroke-linejoin:round;stroke-miterlimit:4;stroke-opacity:1;stroke-dasharray:none;stroke-dashoffset:0"
       id="rect2816-5-5-0-2"
       width="150"
       height="150"
       x="984.60339"
       y="462.34222" />
    <text
       xml:space="preserve"
       style="font-size:38.19978333px;font-style:normal;font-weight:normal;fill:#ffffff;fill-opacity:1;stroke:none;font-family:Bitstream Vera Sans"
       x="567.68341"
       y="534.2973"
       id="text3645-2-0"
       transform="scale(0.97204808,1.0287557)"><tspan
         sodipodi:role="line"
         id="tspan3647-6-7"
         x="567.68341"
         y="534.2973">A(1,0)</tspan></text>
    <text
       xml:space="preserve"
       style="font-size:38.19978333px;font-style:normal;font-weight:normal;fill:#ffffff;fill-opacity:1;stroke:none;font-family:Bitstream Vera Sans"
       x="721.99677"
       y="534.2973"
       id="text3645-0-2-2"
       transform="scale(0.97204808,1.0287557)"><tspan
         sodipodi:role="line"
         id="tspan3647-3-8-3"
         x="721.99677"
         y="534.2973">A(1,1)</tspan></text>
    <text
       xml:space="preserve"
       style="font-size:38.19978333px;font-style:normal;font-weight:normal;fill:#ffffff;fill-opacity:1;stroke:none;font-family:Bitstream Vera Sans"
       x="876.31"
       y="534.2973"
       id="text3645-3-1-5"
       transform="scale(0.97204808,1.0287557)"><tspan
         sodipodi:role="line"
         id="tspan3647-35-2-7"
         x="876.31"
         y="534.2973">A(1,2)</tspan></text>
    <text
       xml:space="preserve"
       style="font-size:38.19978333px;font-style:normal;font-weight:normal;fill:#ffffff;fill-opacity:1;stroke:none;font-family:Bitstream Vera Sans"
       x="1030.6234"
       y="534.2973"
       id="text3645-4-4-5"
       transform="scale(0.97204808,1.0287557)"><tspan
         sodipodi:role="line"
         id="tspan3647-7-5-2"
         x="1030.6234"
         y="534.2973">A(1,3)</tspan></text>
    <rect
       style="fill:#0000ff;fill-opacity:1;fill-rule:nonzero;stroke:#000000;stroke-width:5;stroke-linecap:round;stroke-linejoin:round;stroke-miterlimit:4;stroke-opacity:1;stroke-dasharray:none;stroke-dashoffset:0"
       id="rect2816-43-3"
       width="150"
       height="150"
       x="534.60339"
       y="612.34222" />
    <rect
       style="fill:#0000ff;fill-opacity:1;fill-rule:nonzero;stroke:#000000;stroke-width:5;stroke-linecap:round;stroke-linejoin:round;stroke-miterlimit:4;stroke-opacity:1;stroke-dasharray:none;stroke-dashoffset:0"
       id="rect2816-5-1-6"
       width="150"
       height="150"
       x="684.60333"
       y="612.34222" />
    <rect
       style="fill:#0000ff;fill-opacity:1;fill-rule:nonzero;stroke:#000000;stroke-width:5;stroke-linecap:round;stroke-linejoin:round;stroke-miterlimit:4;stroke-opacity:1;stroke-dasharray:none;stroke-dashoffset:0"
       id="rect2816-5-7-2-4"
       width="150"
       height="150"
       x="834.60339"
       y="612.34222" />
    <rect
       style="fill:#0000ff;fill-opacity:1;fill-rule:nonzero;stroke:#000000;stroke-width:5;stroke-linecap:round;stroke-linejoin:round;stroke-miterlimit:4;stroke-opacity:1;stroke-dasharray:none;stroke-dashoffset:0"
       id="rect2816-5-5-8-0"
       width="150"
       height="150"
       x="984.60339"
       y="612.34222" />
    <text
       xml:space="preserve"
       style="font-size:38.19978333px;font-style:normal;font-weight:normal;fill:#ffffff;fill-opacity:1;stroke:none;font-family:Bitstream Vera Sans"
       x="567.68341"
       y="680.10455"
       id="text3645-1-1"
       transform="scale(0.97204808,1.0287557)"><tspan
         sodipodi:role="line"
         id="tspan3647-4-7"
         x="567.68341"
         y="680.10455">A(2,0)</tspan></text>
    <text
       xml:space="preserve"
       style="font-size:38.19978333px;font-style:normal;font-weight:normal;fill:#ffffff;fill-opacity:1;stroke:none;font-family:Bitstream Vera Sans"
       x="721.99677"
       y="680.10455"
       id="text3645-0-0-0"
       transform="scale(0.97204808,1.0287557)"><tspan
         sodipodi:role="line"
         id="tspan3647-3-7-1"
         x="721.99677"
         y="680.10455">A(2,1)</tspan></text>
    <text
       xml:space="preserve"
       style="font-size:38.19978333px;font-style:normal;font-weight:normal;fill:#ffffff;fill-opacity:1;stroke:none;font-family:Bitstream Vera Sans"
       x="876.31"
       y="680.10455"
       id="text3645-3-9-5"
       transform="scale(0.97204808,1.0287557)"><tspan
         sodipodi:role="line"
         id="tspan3647-35-9-9"
         x="876.31"
         y="680.10455">A(2,2)</tspan></text>
    <text
       xml:space="preserve"
       style="font-size:38.19978333px;font-style:normal;font-weight:normal;fill:#ffffff;fill-opacity:1;stroke:none;font-family:Bitstream Vera Sans"
       x="1030.6234"
       y="680.10455"
       id="text3645-4-5-7"
       transform="scale(0.97204808,1.0287557)"><tspan
         sodipodi:role="line"
         id="tspan3647-7-1-5"
         x="1030.6234"
         y="680.10455">A(2,3)</tspan></text>
    <rect
       style="fill:#00c500;fill-opacity:1;fill-rule:nonzero;stroke:#000000;stroke-width:5;stroke-linecap:round;stroke-linejoin:round;stroke-miterlimit:4;stroke-opacity:1;stroke-dasharray:none;stroke-dashoffset:0"
       id="rect2816-41-4"
       width="150"
       height="150"
       x="534.60339"
       y="762.34222" />
    <rect
       style="fill:#00c500;fill-opacity:1;fill-rule:nonzero;stroke:#000000;stroke-width:5;stroke-linecap:round;stroke-linejoin:round;stroke-miterlimit:4;stroke-opacity:1;stroke-dasharray:none;stroke-dashoffset:0"
       id="rect2816-5-2-5"
       width="150"
       height="150"
       x="684.60333"
       y="762.34222" />
    <rect
       style="fill:#00c500;fill-opacity:1;fill-rule:nonzero;stroke:#000000;stroke-width:5;stroke-linecap:round;stroke-linejoin:round;stroke-miterlimit:4;stroke-opacity:1;stroke-dasharray:none;stroke-dashoffset:0"
       id="rect2816-5-7-5-6"
       width="150"
       height="150"
       x="834.60339"
       y="762.34222" />
    <rect
       style="fill:#00c500;fill-opacity:1;fill-rule:nonzero;stroke:#000000;stroke-width:5;stroke-linecap:round;stroke-linejoin:round;stroke-miterlimit:4;stroke-opacity:1;stroke-dasharray:none;stroke-dashoffset:0"
       id="rect2816-5-5-00-0"
       width="150"
       height="150"
       x="984.60339"
       y="762.34222" />
    <text
       xml:space="preserve"
       style="font-size:38.19978333px;font-style:normal;font-weight:normal;fill:#000000;fill-opacity:1;stroke:none;font-family:Bitstream Vera Sans"
       x="567.68341"
       y="825.91168"
       id="text3645-7-0"
       transform="scale(0.97204808,1.0287557)"><tspan
         sodipodi:role="line"
         id="tspan3647-42-1"
         x="567.68341"
         y="825.91168">A(3,0)</tspan></text>
    <text
       xml:space="preserve"
       style="font-size:38.19978333px;font-style:normal;font-weight:normal;fill:#000000;fill-opacity:1;stroke:none;font-family:Bitstream Vera Sans"
       x="721.99677"
       y="825.91168"
       id="text3645-0-4-2"
       transform="scale(0.97204808,1.0287557)"><tspan
         sodipodi:role="line"
         id="tspan3647-3-4-6"
         x="721.99677"
         y="825.91168">A(3,1)</tspan></text>
    <text
       xml:space="preserve"
       style="font-size:38.19978333px;font-style:normal;font-weight:normal;fill:#000000;fill-opacity:1;stroke:none;font-family:Bitstream Vera Sans"
       x="876.31"
       y="825.91168"
       id="text3645-3-6-8"
       transform="scale(0.97204808,1.0287557)"><tspan
         sodipodi:role="line"
         id="tspan3647-35-90-0"
         x="876.31"
         y="825.91168">A(3,2)</tspan></text>
    <text
       xml:space="preserve"
       style="font-size:38.19978333px;font-style:normal;font-weight:normal;fill:#000000;fill-opacity:1;stroke:none;font-family:Bitstream Vera Sans"
       x="1030.6234"
       y="825.91168"
       id="text3645-4-0-0"
       transform="scale(0.97204808,1.0287557)"><tspan
         sodipodi:role="line"
         id="tspan3647-7-9-9"
         x="1030.6234"
         y="825.91168">A(3,3)</tspan></text>
    <text
       xml:space="preserve"
       style="font-size:56.83345795px;font-style:normal;font-weight:normal;fill:#000000;fill-opacity:1;stroke:none;font-family:Bitstream Vera Sans"
       x="1265.1792"
       y="622.31543"
       id="text2923"
       transform="scale(1.0217102,0.97875114)"><tspan
         sodipodi:role="line"
         id="tspan2925"
         x="1265.1792"
         y="622.31543">A(i,j) = A[offset]</tspan></text>
    <text
       xml:space="preserve"
       style="font-size:56.48508453px;font-style:normal;font-weight:normal;fill:#000000;fill-opacity:1;stroke:none;font-family:Bitstream Vera Sans"
       x="1307.8658"
       y="682.76508"
       id="text2927"
       transform="scale(0.97626982,1.024307)"><tspan
         sodipodi:role="line"
         id="tspan2929"
         x="1307.8658"
         y="682.76508">offset = i * n1 +j</tspan></text>
    <text
       xml:space="preserve"
       style="font-size:54.58074951px;font-style:normal;font-weight:normal;fill:#000000;fill-opacity:1;stroke:none;font-family:Bitstream Vera Sans"
       x="1384.3607"
       y="456.17157"
       id="text2927-2"
       transform="scale(0.94335591,1.0600453)"><tspan
         sodipodi:role="line"
         id="tspan2929-6"
         x="1384.3607"
         y="456.17157"
         style="fill:#0000ff">row-major order</tspan></text>
  </g>
</svg>
