<?xml version="1.0" encoding="UTF-8" standalone="no"?>
<!-- Created with Inkscape (http://www.inkscape.org/) -->

<svg
   xmlns:dc="http://purl.org/dc/elements/1.1/"
   xmlns:cc="http://creativecommons.org/ns#"
   xmlns:rdf="http://www.w3.org/1999/02/22-rdf-syntax-ns#"
   xmlns:svg="http://www.w3.org/2000/svg"
   xmlns="http://www.w3.org/2000/svg"
   xmlns:sodipodi="http://sodipodi.sourceforge.net/DTD/sodipodi-0.dtd"
   xmlns:inkscape="http://www.inkscape.org/namespaces/inkscape"
   width="2405"
   height="1046.6711"
   id="svg2"
   version="1.1"
   inkscape:version="0.47 r22583"
   sodipodi:docname="row-major-matrix_c.svg">
  <defs
     id="defs4">
    <marker
       inkscape:stockid="Arrow1Mend"
       orient="auto"
       refY="0"
       refX="0"
       id="Arrow1Mend"
       style="overflow:visible">
      <path
         id="path3755"
         d="M 0,0 5,-5 -12.5,0 5,5 0,0 z"
         style="fill-rule:evenodd;stroke:#000000;stroke-width:1pt;marker-start:none"
         transform="matrix(-0.4,0,0,-0.4,-4,0)" />
    </marker>
    <marker
       inkscape:stockid="DotM"
       orient="auto"
       refY="0"
       refX="0"
       id="DotM"
       style="overflow:visible">
      <path
         id="path3811"
         d="m -2.5,-1 c 0,2.76 -2.24,5 -5,5 -2.76,0 -5,-2.24 -5,-5 0,-2.76 2.24,-5 5,-5 2.76,0 5,2.24 5,5 z"
         style="fill-rule:evenodd;stroke:#000000;stroke-width:1pt;marker-start:none;marker-end:none"
         transform="matrix(0.4,0,0,0.4,2.96,0.4)" />
    </marker>
    <inkscape:perspective
       sodipodi:type="inkscape:persp3d"
       inkscape:vp_x="0 : 526.18109 : 1"
       inkscape:vp_y="0 : 1000 : 0"
       inkscape:vp_z="744.09448 : 526.18109 : 1"
       inkscape:persp3d-origin="372.04724 : 350.78739 : 1"
       id="perspective10" />
    <inkscape:perspective
       id="perspective3598"
       inkscape:persp3d-origin="0.5 : 0.33333333 : 1"
       inkscape:vp_z="1 : 0.5 : 1"
       inkscape:vp_y="0 : 1000 : 0"
       inkscape:vp_x="0 : 0.5 : 1"
       sodipodi:type="inkscape:persp3d" />
    <inkscape:perspective
       id="perspective3622"
       inkscape:persp3d-origin="0.5 : 0.33333333 : 1"
       inkscape:vp_z="1 : 0.5 : 1"
       inkscape:vp_y="0 : 1000 : 0"
       inkscape:vp_x="0 : 0.5 : 1"
       sodipodi:type="inkscape:persp3d" />
    <inkscape:perspective
       id="perspective3622-3"
       inkscape:persp3d-origin="0.5 : 0.33333333 : 1"
       inkscape:vp_z="1 : 0.5 : 1"
       inkscape:vp_y="0 : 1000 : 0"
       inkscape:vp_x="0 : 0.5 : 1"
       sodipodi:type="inkscape:persp3d" />
    <inkscape:perspective
       id="perspective3657"
       inkscape:persp3d-origin="0.5 : 0.33333333 : 1"
       inkscape:vp_z="1 : 0.5 : 1"
       inkscape:vp_y="0 : 1000 : 0"
       inkscape:vp_x="0 : 0.5 : 1"
       sodipodi:type="inkscape:persp3d" />
    <inkscape:perspective
       id="perspective3657-2"
       inkscape:persp3d-origin="0.5 : 0.33333333 : 1"
       inkscape:vp_z="1 : 0.5 : 1"
       inkscape:vp_y="0 : 1000 : 0"
       inkscape:vp_x="0 : 0.5 : 1"
       sodipodi:type="inkscape:persp3d" />
    <inkscape:perspective
       id="perspective3657-0"
       inkscape:persp3d-origin="0.5 : 0.33333333 : 1"
       inkscape:vp_z="1 : 0.5 : 1"
       inkscape:vp_y="0 : 1000 : 0"
       inkscape:vp_x="0 : 0.5 : 1"
       sodipodi:type="inkscape:persp3d" />
    <inkscape:perspective
       id="perspective3718"
       inkscape:persp3d-origin="0.5 : 0.33333333 : 1"
       inkscape:vp_z="1 : 0.5 : 1"
       inkscape:vp_y="0 : 1000 : 0"
       inkscape:vp_x="0 : 0.5 : 1"
       sodipodi:type="inkscape:persp3d" />
    <inkscape:perspective
       id="perspective3718-3"
       inkscape:persp3d-origin="0.5 : 0.33333333 : 1"
       inkscape:vp_z="1 : 0.5 : 1"
       inkscape:vp_y="0 : 1000 : 0"
       inkscape:vp_x="0 : 0.5 : 1"
       sodipodi:type="inkscape:persp3d" />
    <inkscape:perspective
       id="perspective3718-0"
       inkscape:persp3d-origin="0.5 : 0.33333333 : 1"
       inkscape:vp_z="1 : 0.5 : 1"
       inkscape:vp_y="0 : 1000 : 0"
       inkscape:vp_x="0 : 0.5 : 1"
       sodipodi:type="inkscape:persp3d" />
    <inkscape:perspective
       id="perspective2878"
       inkscape:persp3d-origin="0.5 : 0.33333333 : 1"
       inkscape:vp_z="1 : 0.5 : 1"
       inkscape:vp_y="0 : 1000 : 0"
       inkscape:vp_x="0 : 0.5 : 1"
       sodipodi:type="inkscape:persp3d" />
    <inkscape:perspective
       id="perspective4387"
       inkscape:persp3d-origin="0.5 : 0.33333333 : 1"
       inkscape:vp_z="1 : 0.5 : 1"
       inkscape:vp_y="0 : 1000 : 0"
       inkscape:vp_x="0 : 0.5 : 1"
       sodipodi:type="inkscape:persp3d" />
    <marker
       inkscape:stockid="DotM"
       orient="auto"
       refY="0"
       refX="0"
       id="DotM-3"
       style="overflow:visible">
      <path
         id="path3811-2"
         d="m -2.5,-1 c 0,2.76 -2.24,5 -5,5 -2.76,0 -5,-2.24 -5,-5 0,-2.76 2.24,-5 5,-5 2.76,0 5,2.24 5,5 z"
         style="fill-rule:evenodd;stroke:#000000;stroke-width:1pt;marker-start:none;marker-end:none"
         transform="matrix(0.4,0,0,0.4,2.96,0.4)" />
    </marker>
    <marker
       inkscape:stockid="Arrow1Mend"
       orient="auto"
       refY="0"
       refX="0"
       id="Arrow1Mend-8"
       style="overflow:visible">
      <path
         id="path3755-7"
         d="M 0,0 5,-5 -12.5,0 5,5 0,0 z"
         style="fill-rule:evenodd;stroke:#000000;stroke-width:1pt;marker-start:none"
         transform="matrix(-0.4,0,0,-0.4,-4,0)" />
    </marker>
  </defs>
  <sodipodi:namedview
     id="base"
     pagecolor="#ffffff"
     bordercolor="#666666"
     borderopacity="1.0"
     inkscape:pageopacity="0.0"
     inkscape:pageshadow="2"
     inkscape:zoom="0.46289425"
     inkscape:cx="1195.6577"
     inkscape:cy="11.687438"
     inkscape:document-units="px"
     inkscape:current-layer="layer1"
     showgrid="false"
     inkscape:window-width="1577"
     inkscape:window-height="1231"
     inkscape:window-x="227"
     inkscape:window-y="246"
     inkscape:window-maximized="0" />
  <metadata
     id="metadata7">
    <rdf:RDF>
      <cc:Work
         rdf:about="">
        <dc:format>image/svg+xml</dc:format>
        <dc:type
           rdf:resource="http://purl.org/dc/dcmitype/StillImage" />
        <dc:title />
      </cc:Work>
    </rdf:RDF>
  </metadata>
  <g
     inkscape:label="Layer 1"
     inkscape:groupmode="layer"
     id="layer1"
     transform="translate(68.214287,-209.44659)">
    <g
       id="g3696">
      <rect
         y="1036.6478"
         x="-65.714287"
         height="150"
         width="150"
         id="rect2816"
         style="fill:#ffff00;fill-opacity:1;fill-rule:nonzero;stroke:#000000;stroke-width:5;stroke-linecap:round;stroke-linejoin:round;stroke-miterlimit:4;stroke-opacity:1;stroke-dasharray:none;stroke-dashoffset:0" />
      <rect
         y="1036.6478"
         x="84.285713"
         height="150"
         width="150"
         id="rect2816-5"
         style="fill:#ffff00;fill-opacity:1;fill-rule:nonzero;stroke:#000000;stroke-width:5;stroke-linecap:round;stroke-linejoin:round;stroke-miterlimit:4;stroke-opacity:1;stroke-dasharray:none;stroke-dashoffset:0" />
      <rect
         y="1036.6478"
         x="234.28571"
         height="150"
         width="150"
         id="rect2816-5-7"
         style="fill:#ffff00;fill-opacity:1;fill-rule:nonzero;stroke:#000000;stroke-width:5;stroke-linecap:round;stroke-linejoin:round;stroke-miterlimit:4;stroke-opacity:1;stroke-dasharray:none;stroke-dashoffset:0" />
      <rect
         y="1036.6478"
         x="384.28571"
         height="150"
         width="150"
         id="rect2816-5-5"
         style="fill:#ffff00;fill-opacity:1;fill-rule:nonzero;stroke:#000000;stroke-width:5;stroke-linecap:round;stroke-linejoin:round;stroke-miterlimit:4;stroke-opacity:1;stroke-dasharray:none;stroke-dashoffset:0" />
      <text
         transform="scale(0.97204808,1.0287557)"
         id="text3645"
         y="1092.5499"
         x="-29.324051"
         style="font-size:38.19978333px;font-style:normal;font-weight:normal;fill:#000000;fill-opacity:1;stroke:none;font-family:Bitstream Vera Sans"
         xml:space="preserve"><tspan
           y="1092.5499"
           x="-29.324051"
           id="tspan3647"
           sodipodi:role="line">A[0]</tspan></text>
      <text
         transform="scale(0.97204808,1.0287557)"
         id="text3645-0"
         y="1092.5499"
         x="122.93179"
         style="font-size:38.19978333px;font-style:normal;font-weight:normal;fill:#000000;fill-opacity:1;stroke:none;font-family:Bitstream Vera Sans"
         xml:space="preserve"><tspan
           y="1092.5499"
           x="122.93179"
           id="tspan3647-3"
           sodipodi:role="line">A[1]</tspan></text>
      <text
         transform="scale(0.97204808,1.0287557)"
         id="text3645-3"
         y="1092.5499"
         x="279.3028"
         style="font-size:38.19978333px;font-style:normal;font-weight:normal;fill:#000000;fill-opacity:1;stroke:none;font-family:Bitstream Vera Sans"
         xml:space="preserve"><tspan
           y="1092.5499"
           x="279.3028"
           id="tspan3647-35"
           sodipodi:role="line">A[2]</tspan></text>
      <text
         transform="scale(0.97204808,1.0287557)"
         id="text3645-4"
         y="1092.5499"
         x="431.55862"
         style="font-size:38.19978333px;font-style:normal;font-weight:normal;fill:#000000;fill-opacity:1;stroke:none;font-family:Bitstream Vera Sans"
         xml:space="preserve"><tspan
           y="1092.5499"
           x="431.55862"
           id="tspan3647-7"
           sodipodi:role="line">A[3]</tspan></text>
    </g>
    <g
       id="g3933"
       transform="translate(600,-150.00003)">
      <rect
         y="1186.6478"
         x="-65.714287"
         height="150"
         width="150"
         id="rect2816-4"
         style="fill:#ff0000;fill-opacity:1;fill-rule:nonzero;stroke:#000000;stroke-width:5;stroke-linecap:round;stroke-linejoin:round;stroke-miterlimit:4;stroke-opacity:1;stroke-dasharray:none;stroke-dashoffset:0" />
      <rect
         y="1186.6478"
         x="84.285713"
         height="150"
         width="150"
         id="rect2816-5-9"
         style="fill:#ff0000;fill-opacity:1;fill-rule:nonzero;stroke:#000000;stroke-width:5;stroke-linecap:round;stroke-linejoin:round;stroke-miterlimit:4;stroke-opacity:1;stroke-dasharray:none;stroke-dashoffset:0" />
      <rect
         y="1186.6478"
         x="234.28571"
         height="150"
         width="150"
         id="rect2816-5-7-0"
         style="fill:#ff0000;fill-opacity:1;fill-rule:nonzero;stroke:#000000;stroke-width:5;stroke-linecap:round;stroke-linejoin:round;stroke-miterlimit:4;stroke-opacity:1;stroke-dasharray:none;stroke-dashoffset:0" />
      <rect
         y="1186.6478"
         x="384.28571"
         height="150"
         width="150"
         id="rect2816-5-5-0"
         style="fill:#ff0000;fill-opacity:1;fill-rule:nonzero;stroke:#000000;stroke-width:5;stroke-linecap:round;stroke-linejoin:round;stroke-miterlimit:4;stroke-opacity:1;stroke-dasharray:none;stroke-dashoffset:0" />
      <text
         transform="scale(0.97204808,1.0287557)"
         id="text3645-2"
         y="1238.3572"
         x="-31.381563"
         style="font-size:38.19978333px;font-style:normal;font-weight:normal;fill:#ffffff;fill-opacity:1;stroke:none;font-family:Bitstream Vera Sans"
         xml:space="preserve"><tspan
           y="1238.3572"
           x="-31.381563"
           id="tspan3647-6"
           sodipodi:role="line">A[4]</tspan></text>
      <text
         transform="scale(0.97204808,1.0287557)"
         id="text3645-0-2"
         y="1238.3572"
         x="122.93179"
         style="font-size:38.19978333px;font-style:normal;font-weight:normal;fill:#ffffff;fill-opacity:1;stroke:none;font-family:Bitstream Vera Sans"
         xml:space="preserve"><tspan
           y="1238.3572"
           x="122.93179"
           id="tspan3647-3-8"
           sodipodi:role="line">A[5]</tspan></text>
      <text
         transform="scale(0.97204808,1.0287557)"
         id="text3645-3-1"
         y="1238.3572"
         x="277.24527"
         style="font-size:38.19978333px;font-style:normal;font-weight:normal;fill:#ffffff;fill-opacity:1;stroke:none;font-family:Bitstream Vera Sans"
         xml:space="preserve"><tspan
           y="1238.3572"
           x="277.24527"
           id="tspan3647-35-2"
           sodipodi:role="line">A[6]</tspan></text>
      <text
         transform="scale(0.97204808,1.0287557)"
         id="text3645-4-4"
         y="1238.3572"
         x="431.55862"
         style="font-size:38.19978333px;font-style:normal;font-weight:normal;fill:#ffffff;fill-opacity:1;stroke:none;font-family:Bitstream Vera Sans"
         xml:space="preserve"><tspan
           y="1238.3572"
           x="431.55862"
           id="tspan3647-7-5"
           sodipodi:role="line">A[7]</tspan></text>
    </g>
    <rect
       style="fill:#0000ff;fill-opacity:1;fill-rule:nonzero;stroke:#000000;stroke-width:5;stroke-linecap:round;stroke-linejoin:round;stroke-miterlimit:4;stroke-opacity:1;stroke-dasharray:none;stroke-dashoffset:0"
       id="rect2816-43"
       width="150"
       height="150"
       x="1134.2858"
       y="1036.6478" />
    <rect
       style="fill:#0000ff;fill-opacity:1;fill-rule:nonzero;stroke:#000000;stroke-width:5;stroke-linecap:round;stroke-linejoin:round;stroke-miterlimit:4;stroke-opacity:1;stroke-dasharray:none;stroke-dashoffset:0"
       id="rect2816-5-1"
       width="150"
       height="150"
       x="1284.2858"
       y="1036.6478" />
    <rect
       style="fill:#0000ff;fill-opacity:1;fill-rule:nonzero;stroke:#000000;stroke-width:5;stroke-linecap:round;stroke-linejoin:round;stroke-miterlimit:4;stroke-opacity:1;stroke-dasharray:none;stroke-dashoffset:0"
       id="rect2816-5-7-2"
       width="150"
       height="150"
       x="1434.2856"
       y="1036.6478" />
    <rect
       style="fill:#0000ff;fill-opacity:1;fill-rule:nonzero;stroke:#000000;stroke-width:5;stroke-linecap:round;stroke-linejoin:round;stroke-miterlimit:4;stroke-opacity:1;stroke-dasharray:none;stroke-dashoffset:0"
       id="rect2816-5-5-8"
       width="150"
       height="150"
       x="1584.2856"
       y="1036.6478" />
    <text
       xml:space="preserve"
       style="font-size:38.19978333px;font-style:normal;font-weight:normal;fill:#ffffff;fill-opacity:1;stroke:none;font-family:Bitstream Vera Sans"
       x="1203.1251"
       y="1092.5499"
       id="text3645-1"
       transform="scale(0.97204808,1.0287557)"><tspan
         sodipodi:role="line"
         id="tspan3647-4"
         x="1203.1251"
         y="1092.5499">A[8]</tspan></text>
    <text
       xml:space="preserve"
       style="font-size:38.19978333px;font-style:normal;font-weight:normal;fill:#ffffff;fill-opacity:1;stroke:none;font-family:Bitstream Vera Sans"
       x="1355.381"
       y="1092.5499"
       id="text3645-0-0"
       transform="scale(0.97204808,1.0287557)"><tspan
         sodipodi:role="line"
         id="tspan3647-3-7"
         x="1355.381"
         y="1092.5499">A[9]</tspan></text>
    <text
       xml:space="preserve"
       style="font-size:38.19978333px;font-style:normal;font-weight:normal;fill:#ffffff;fill-opacity:1;stroke:none;font-family:Bitstream Vera Sans"
       x="1499.4069"
       y="1092.5499"
       id="text3645-3-9"
       transform="scale(0.97204808,1.0287557)"><tspan
         sodipodi:role="line"
         id="tspan3647-35-9"
         x="1499.4069"
         y="1092.5499">A[10]</tspan></text>
    <text
       xml:space="preserve"
       style="font-size:38.19978333px;font-style:normal;font-weight:normal;fill:#ffffff;fill-opacity:1;stroke:none;font-family:Bitstream Vera Sans"
       x="1657.8352"
       y="1092.5499"
       id="text3645-4-5"
       transform="scale(0.97204808,1.0287557)"><tspan
         sodipodi:role="line"
         id="tspan3647-7-1"
         x="1657.8352"
         y="1092.5499">A[11]</tspan></text>
    <rect
       style="fill:#00c500;fill-opacity:1;fill-rule:nonzero;stroke:#000000;stroke-width:5;stroke-linecap:round;stroke-linejoin:round;stroke-miterlimit:4;stroke-opacity:1;stroke-dasharray:none;stroke-dashoffset:0"
       id="rect2816-41"
       width="150"
       height="150"
       x="1734.2858"
       y="1036.6478" />
    <rect
       style="fill:#00c500;fill-opacity:1;fill-rule:nonzero;stroke:#000000;stroke-width:5;stroke-linecap:round;stroke-linejoin:round;stroke-miterlimit:4;stroke-opacity:1;stroke-dasharray:none;stroke-dashoffset:0"
       id="rect2816-5-2"
       width="150"
       height="150"
       x="1884.2858"
       y="1036.6478" />
    <rect
       style="fill:#00c500;fill-opacity:1;fill-rule:nonzero;stroke:#000000;stroke-width:5;stroke-linecap:round;stroke-linejoin:round;stroke-miterlimit:4;stroke-opacity:1;stroke-dasharray:none;stroke-dashoffset:0"
       id="rect2816-5-7-5"
       width="150"
       height="150"
       x="2034.2856"
       y="1036.6478" />
    <rect
       style="fill:#00c500;fill-opacity:1;fill-rule:nonzero;stroke:#000000;stroke-width:5;stroke-linecap:round;stroke-linejoin:round;stroke-miterlimit:4;stroke-opacity:1;stroke-dasharray:none;stroke-dashoffset:0"
       id="rect2816-5-5-00"
       width="150"
       height="150"
       x="2184.2856"
       y="1036.6478" />
    <text
       xml:space="preserve"
       style="font-size:38.19978333px;font-style:normal;font-weight:normal;fill:#000000;fill-opacity:1;stroke:none;font-family:Bitstream Vera Sans"
       x="1810.0911"
       y="1092.5499"
       id="text3645-7"
       transform="scale(0.97204808,1.0287557)"><tspan
         sodipodi:role="line"
         id="tspan3647-42"
         x="1810.0911"
         y="1092.5499">A[12]</tspan></text>
    <text
       xml:space="preserve"
       style="font-size:38.19978333px;font-style:normal;font-weight:normal;fill:#000000;fill-opacity:1;stroke:none;font-family:Bitstream Vera Sans"
       x="1964.4044"
       y="1092.5499"
       id="text3645-0-4"
       transform="scale(0.97204808,1.0287557)"><tspan
         sodipodi:role="line"
         id="tspan3647-3-4"
         x="1964.4044"
         y="1092.5499">A[13]</tspan></text>
    <text
       xml:space="preserve"
       style="font-size:38.19978333px;font-style:normal;font-weight:normal;fill:#000000;fill-opacity:1;stroke:none;font-family:Bitstream Vera Sans"
       x="2118.7183"
       y="1092.5499"
       id="text3645-3-6"
       transform="scale(0.97204808,1.0287557)"><tspan
         sodipodi:role="line"
         id="tspan3647-35-90"
         x="2118.7183"
         y="1092.5499">A[14]</tspan></text>
    <text
       xml:space="preserve"
       style="font-size:38.19978333px;font-style:normal;font-weight:normal;fill:#000000;fill-opacity:1;stroke:none;font-family:Bitstream Vera Sans"
       x="2273.0317"
       y="1092.5499"
       id="text3645-4-0"
       transform="scale(0.97204808,1.0287557)"><tspan
         sodipodi:role="line"
         id="tspan3647-7-9"
         x="2273.0317"
         y="1092.5499">A[15]</tspan></text>
    <g
       transform="translate(600.31764,-724.30561)"
       id="g3696-7">
      <rect
         y="1036.6478"
         x="-65.714287"
         height="150"
         width="150"
         id="rect2816-3"
         style="fill:#ffff00;fill-opacity:1;fill-rule:nonzero;stroke:#000000;stroke-width:5;stroke-linecap:round;stroke-linejoin:round;stroke-miterlimit:4;stroke-opacity:1;stroke-dasharray:none;stroke-dashoffset:0" />
      <rect
         y="1036.6478"
         x="84.285713"
         height="150"
         width="150"
         id="rect2816-5-3"
         style="fill:#ffff00;fill-opacity:1;fill-rule:nonzero;stroke:#000000;stroke-width:5;stroke-linecap:round;stroke-linejoin:round;stroke-miterlimit:4;stroke-opacity:1;stroke-dasharray:none;stroke-dashoffset:0" />
      <rect
         y="1036.6478"
         x="234.28571"
         height="150"
         width="150"
         id="rect2816-5-7-9"
         style="fill:#ffff00;fill-opacity:1;fill-rule:nonzero;stroke:#000000;stroke-width:5;stroke-linecap:round;stroke-linejoin:round;stroke-miterlimit:4;stroke-opacity:1;stroke-dasharray:none;stroke-dashoffset:0" />
      <rect
         y="1036.6478"
         x="384.28571"
         height="150"
         width="150"
         id="rect2816-5-5-7"
         style="fill:#ffff00;fill-opacity:1;fill-rule:nonzero;stroke:#000000;stroke-width:5;stroke-linecap:round;stroke-linejoin:round;stroke-miterlimit:4;stroke-opacity:1;stroke-dasharray:none;stroke-dashoffset:0" />
      <text
         transform="scale(0.97204808,1.0287557)"
         id="text3645-5"
         y="1092.5499"
         x="-49.899158"
         style="font-size:38.19978333px;font-style:normal;font-weight:normal;fill:#000000;fill-opacity:1;stroke:none;font-family:Bitstream Vera Sans"
         xml:space="preserve"><tspan
           y="1092.5499"
           x="-49.899158"
           id="tspan3647-76"
           sodipodi:role="line">A(0,0)</tspan></text>
      <text
         transform="scale(0.97204808,1.0287557)"
         id="text3645-0-8"
         y="1092.5499"
         x="104.4142"
         style="font-size:38.19978333px;font-style:normal;font-weight:normal;fill:#000000;fill-opacity:1;stroke:none;font-family:Bitstream Vera Sans"
         xml:space="preserve"><tspan
           y="1092.5499"
           x="104.4142"
           id="tspan3647-3-3"
           sodipodi:role="line">A(0,1)</tspan></text>
      <text
         transform="scale(0.97204808,1.0287557)"
         id="text3645-3-69"
         y="1092.5499"
         x="258.72754"
         style="font-size:38.19978333px;font-style:normal;font-weight:normal;fill:#000000;fill-opacity:1;stroke:none;font-family:Bitstream Vera Sans"
         xml:space="preserve"><tspan
           y="1092.5499"
           x="258.72754"
           id="tspan3647-35-6"
           sodipodi:role="line">A(0,2)</tspan></text>
      <text
         transform="scale(0.97204808,1.0287557)"
         id="text3645-4-45"
         y="1092.5499"
         x="413.04089"
         style="font-size:38.19978333px;font-style:normal;font-weight:normal;fill:#000000;fill-opacity:1;stroke:none;font-family:Bitstream Vera Sans"
         xml:space="preserve"><tspan
           y="1092.5499"
           x="413.04089"
           id="tspan3647-7-2"
           sodipodi:role="line">A(0,3)</tspan></text>
    </g>
    <rect
       style="fill:#ff0000;fill-opacity:1;fill-rule:nonzero;stroke:#000000;stroke-width:5;stroke-linecap:round;stroke-linejoin:round;stroke-miterlimit:4;stroke-opacity:1;stroke-dasharray:none;stroke-dashoffset:0"
       id="rect2816-4-6"
       width="150"
       height="150"
       x="534.60339"
       y="462.34222" />
    <rect
       style="fill:#ff0000;fill-opacity:1;fill-rule:nonzero;stroke:#000000;stroke-width:5;stroke-linecap:round;stroke-linejoin:round;stroke-miterlimit:4;stroke-opacity:1;stroke-dasharray:none;stroke-dashoffset:0"
       id="rect2816-5-9-5"
       width="150"
       height="150"
       x="684.60333"
       y="462.34222" />
    <rect
       style="fill:#ff0000;fill-opacity:1;fill-rule:nonzero;stroke:#000000;stroke-width:5;stroke-linecap:round;stroke-linejoin:round;stroke-miterlimit:4;stroke-opacity:1;stroke-dasharray:none;stroke-dashoffset:0"
       id="rect2816-5-7-0-6"
       width="150"
       height="150"
       x="834.60339"
       y="462.34222" />
    <rect
       style="fill:#ff0000;fill-opacity:1;fill-rule:nonzero;stroke:#000000;stroke-width:5;stroke-linecap:round;stroke-linejoin:round;stroke-miterlimit:4;stroke-opacity:1;stroke-dasharray:none;stroke-dashoffset:0"
       id="rect2816-5-5-0-2"
       width="150"
       height="150"
       x="984.60339"
       y="462.34222" />
    <text
       xml:space="preserve"
       style="font-size:38.19978333px;font-style:normal;font-weight:normal;fill:#ffffff;fill-opacity:1;stroke:none;font-family:Bitstream Vera Sans"
       x="567.68341"
       y="534.2973"
       id="text3645-2-0"
       transform="scale(0.97204808,1.0287557)"><tspan
         sodipodi:role="line"
         id="tspan3647-6-7"
         x="567.68341"
         y="534.2973">A(1,0)</tspan></text>
    <text
       xml:space="preserve"
       style="font-size:38.19978333px;font-style:normal;font-weight:normal;fill:#ffffff;fill-opacity:1;stroke:none;font-family:Bitstream Vera Sans"
       x="721.99677"
       y="534.2973"
       id="text3645-0-2-2"
       transform="scale(0.97204808,1.0287557)"><tspan
         sodipodi:role="line"
         id="tspan3647-3-8-3"
         x="721.99677"
         y="534.2973">A(1,1)</tspan></text>
    <text
       xml:space="preserve"
       style="font-size:38.19978333px;font-style:normal;font-weight:normal;fill:#ffffff;fill-opacity:1;stroke:none;font-family:Bitstream Vera Sans"
       x="876.31"
       y="534.2973"
       id="text3645-3-1-5"
       transform="scale(0.97204808,1.0287557)"><tspan
         sodipodi:role="line"
         id="tspan3647-35-2-7"
         x="876.31"
         y="534.2973">A(1,2)</tspan></text>
    <text
       xml:space="preserve"
       style="font-size:38.19978333px;font-style:normal;font-weight:normal;fill:#ffffff;fill-opacity:1;stroke:none;font-family:Bitstream Vera Sans"
       x="1030.6234"
       y="534.2973"
       id="text3645-4-4-5"
       transform="scale(0.97204808,1.0287557)"><tspan
         sodipodi:role="line"
         id="tspan3647-7-5-2"
         x="1030.6234"
         y="534.2973">A(1,3)</tspan></text>
    <rect
       style="fill:#0000ff;fill-opacity:1;fill-rule:nonzero;stroke:#000000;stroke-width:5;stroke-linecap:round;stroke-linejoin:round;stroke-miterlimit:4;stroke-opacity:1;stroke-dasharray:none;stroke-dashoffset:0"
       id="rect2816-43-3"
       width="150"
       height="150"
       x="534.60339"
       y="612.34222" />
    <rect
       style="fill:#0000ff;fill-opacity:1;fill-rule:nonzero;stroke:#000000;stroke-width:5;stroke-linecap:round;stroke-linejoin:round;stroke-miterlimit:4;stroke-opacity:1;stroke-dasharray:none;stroke-dashoffset:0"
       id="rect2816-5-1-6"
       width="150"
       height="150"
       x="684.60333"
       y="612.34222" />
    <rect
       style="fill:#0000ff;fill-opacity:1;fill-rule:nonzero;stroke:#000000;stroke-width:5;stroke-linecap:round;stroke-linejoin:round;stroke-miterlimit:4;stroke-opacity:1;stroke-dasharray:none;stroke-dashoffset:0"
       id="rect2816-5-7-2-4"
       width="150"
       height="150"
       x="834.60339"
       y="612.34222" />
    <rect
       style="fill:#0000ff;fill-opacity:1;fill-rule:nonzero;stroke:#000000;stroke-width:5;stroke-linecap:round;stroke-linejoin:round;stroke-miterlimit:4;stroke-opacity:1;stroke-dasharray:none;stroke-dashoffset:0"
       id="rect2816-5-5-8-0"
       width="150"
       height="150"
       x="984.60339"
       y="612.34222" />
    <text
       xml:space="preserve"
       style="font-size:38.19978333px;font-style:normal;font-weight:normal;fill:#ffffff;fill-opacity:1;stroke:none;font-family:Bitstream Vera Sans"
       x="567.68341"
       y="680.10455"
       id="text3645-1-1"
       transform="scale(0.97204808,1.0287557)"><tspan
         sodipodi:role="line"
         id="tspan3647-4-7"
         x="567.68341"
         y="680.10455">A(2,0)</tspan></text>
    <text
       xml:space="preserve"
       style="font-size:38.19978333px;font-style:normal;font-weight:normal;fill:#ffffff;fill-opacity:1;stroke:none;font-family:Bitstream Vera Sans"
       x="721.99677"
       y="680.10455"
       id="text3645-0-0-0"
       transform="scale(0.97204808,1.0287557)"><tspan
         sodipodi:role="line"
         id="tspan3647-3-7-1"
         x="721.99677"
         y="680.10455">A(2,1)</tspan></text>
    <text
       xml:space="preserve"
       style="font-size:38.19978333px;font-style:normal;font-weight:normal;fill:#ffffff;fill-opacity:1;stroke:none;font-family:Bitstream Vera Sans"
       x="876.31"
       y="680.10455"
       id="text3645-3-9-5"
       transform="scale(0.97204808,1.0287557)"><tspan
         sodipodi:role="line"
         id="tspan3647-35-9-9"
         x="876.31"
         y="680.10455">A(2,2)</tspan></text>
    <text
       xml:space="preserve"
       style="font-size:38.19978333px;font-style:normal;font-weight:normal;fill:#ffffff;fill-opacity:1;stroke:none;font-family:Bitstream Vera Sans"
       x="1030.6234"
       y="680.10455"
       id="text3645-4-5-7"
       transform="scale(0.97204808,1.0287557)"><tspan
         sodipodi:role="line"
         id="tspan3647-7-1-5"
         x="1030.6234"
         y="680.10455">A(2,3)</tspan></text>
    <rect
       style="fill:#00c500;fill-opacity:1;fill-rule:nonzero;stroke:#000000;stroke-width:5;stroke-linecap:round;stroke-linejoin:round;stroke-miterlimit:4;stroke-opacity:1;stroke-dasharray:none;stroke-dashoffset:0"
       id="rect2816-41-4"
       width="150"
       height="150"
       x="534.60339"
       y="762.34222" />
    <rect
       style="fill:#00c500;fill-opacity:1;fill-rule:nonzero;stroke:#000000;stroke-width:5;stroke-linecap:round;stroke-linejoin:round;stroke-miterlimit:4;stroke-opacity:1;stroke-dasharray:none;stroke-dashoffset:0"
       id="rect2816-5-2-5"
       width="150"
       height="150"
       x="684.60333"
       y="762.34222" />
    <rect
       style="fill:#00c500;fill-opacity:1;fill-rule:nonzero;stroke:#000000;stroke-width:5;stroke-linecap:round;stroke-linejoin:round;stroke-miterlimit:4;stroke-opacity:1;stroke-dasharray:none;stroke-dashoffset:0"
       id="rect2816-5-7-5-6"
       width="150"
       height="150"
       x="834.60339"
       y="762.34222" />
    <rect
       style="fill:#00c500;fill-opacity:1;fill-rule:nonzero;stroke:#000000;stroke-width:5;stroke-linecap:round;stroke-linejoin:round;stroke-miterlimit:4;stroke-opacity:1;stroke-dasharray:none;stroke-dashoffset:0"
       id="rect2816-5-5-00-0"
       width="150"
       height="150"
       x="984.60339"
       y="762.34222" />
    <text
       xml:space="preserve"
       style="font-size:38.19978333px;font-style:normal;font-weight:normal;fill:#000000;fill-opacity:1;stroke:none;font-family:Bitstream Vera Sans"
       x="567.68341"
       y="825.91168"
       id="text3645-7-0"
       transform="scale(0.97204808,1.0287557)"><tspan
         sodipodi:role="line"
         id="tspan3647-42-1"
         x="567.68341"
         y="825.91168">A(3,0)</tspan></text>
    <text
       xml:space="preserve"
       style="font-size:38.19978333px;font-style:normal;font-weight:normal;fill:#000000;fill-opacity:1;stroke:none;font-family:Bitstream Vera Sans"
       x="721.99677"
       y="825.91168"
       id="text3645-0-4-2"
       transform="scale(0.97204808,1.0287557)"><tspan
         sodipodi:role="line"
         id="tspan3647-3-4-6"
         x="721.99677"
         y="825.91168">A(3,1)</tspan></text>
    <text
       xml:space="preserve"
       style="font-size:38.19978333px;font-style:normal;font-weight:normal;fill:#000000;fill-opacity:1;stroke:none;font-family:Bitstream Vera Sans"
       x="876.31"
       y="825.91168"
       id="text3645-3-6-8"
       transform="scale(0.97204808,1.0287557)"><tspan
         sodipodi:role="line"
         id="tspan3647-35-90-0"
         x="876.31"
         y="825.91168">A(3,2)</tspan></text>
    <text
       xml:space="preserve"
       style="font-size:38.19978333px;font-style:normal;font-weight:normal;fill:#000000;fill-opacity:1;stroke:none;font-family:Bitstream Vera Sans"
       x="1030.6234"
       y="825.91168"
       id="text3645-4-0-0"
       transform="scale(0.97204808,1.0287557)"><tspan
         sodipodi:role="line"
         id="tspan3647-7-9-9"
         x="1030.6234"
         y="825.91168">A(3,3)</tspan></text>
    <path
       style="fill:none;stroke:#000000;stroke-width:5;stroke-linecap:butt;stroke-linejoin:miter;stroke-miterlimit:4;stroke-opacity:1;stroke-dasharray:none;marker-start:url(#DotM);marker-end:url(#Arrow1Mend)"
       d="m 493.14844,272.1338 c 0,295.96392 0,295.96392 0,295.96392"
       id="path2969" />
    <path
       style="fill:none;stroke:#000000;stroke-width:5;stroke-linecap:butt;stroke-linejoin:miter;stroke-miterlimit:4;stroke-opacity:1;stroke-dasharray:none;marker-start:url(#DotM);marker-end:url(#Arrow1Mend)"
       d="m 492.50798,272.13378 c 295.96388,0 295.96388,0 295.96388,0"
       id="path2969-2" />
    <text
       xml:space="preserve"
       style="font-size:40px;font-style:normal;font-weight:normal;fill:#000000;fill-opacity:1;stroke:none;font-family:Bitstream Vera Sans"
       x="724.62335"
       y="238.60675"
       id="text4413"><tspan
         sodipodi:role="line"
         id="tspan4415"
         x="724.62335"
         y="238.60675">n1</tspan></text>
    <text
       xml:space="preserve"
       style="font-size:40px;font-style:normal;font-weight:normal;fill:#000000;fill-opacity:1;stroke:none;font-family:Bitstream Vera Sans"
       x="407.05624"
       y="562.65485"
       id="text4417"><tspan
         sodipodi:role="line"
         id="tspan4419"
         x="407.05624"
         y="562.65485">n2</tspan></text>
    <text
       xml:space="preserve"
       style="font-size:41.23271942px;font-style:normal;font-weight:normal;fill:#000000;fill-opacity:1;stroke:none;font-family:Bitstream Vera Sans"
       x="1254.3636"
       y="470.7493"
       id="text4445"
       transform="scale(0.9858539,1.0143491)"><tspan
         sodipodi:role="line"
         id="tspan4447"
         x="1254.3636"
         y="470.7493"><tspan
   style="fill:#0000ff"
   id="tspan4461">for</tspan> (i=0; i&lt;n2; i++) {</tspan><tspan
         sodipodi:role="line"
         x="1254.3636"
         y="522.29022"
         id="tspan4451"><tspan
   style="fill:#0000ff"
   id="tspan4463">     for</tspan> (j=0; j&lt;n1; j++) {</tspan><tspan
         sodipodi:role="line"
         x="1254.3636"
         y="573.83112"
         id="tspan2948">          </tspan><tspan
         sodipodi:role="line"
         x="1254.3636"
         y="625.37201"
         id="tspan2952">           A[ i*n1+j ] = 1.0;       </tspan><tspan
         sodipodi:role="line"
         x="1254.3636"
         y="676.9129"
         id="tspan4455" /><tspan
         sodipodi:role="line"
         x="1254.3636"
         y="728.4538"
         id="tspan4457">     }</tspan><tspan
         sodipodi:role="line"
         x="1254.3636"
         y="779.99469"
         id="tspan4459">}</tspan><tspan
         sodipodi:role="line"
         x="1254.3636"
         y="831.53558"
         id="tspan4449" /></text>
    <text
       xml:space="preserve"
       style="font-size:40px;font-style:normal;font-weight:normal;fill:#000000;fill-opacity:1;stroke:none;font-family:Bitstream Vera Sans"
       x="2195.8018"
       y="1003.8744"
       id="text2954"><tspan
         sodipodi:role="line"
         id="tspan2956"
         x="2195.8018"
         y="1003.8744">A[N-1]</tspan></text>
    <text
       xml:space="preserve"
       style="font-size:40px;font-style:normal;font-weight:normal;fill:#000000;fill-opacity:1;stroke:none;font-family:Bitstream Vera Sans"
       x="-31.488834"
       y="1003.8744"
       id="text2958"><tspan
         sodipodi:role="line"
         id="tspan2960"
         x="-31.488834"
         y="1003.8744">A[0]</tspan></text>
    <text
       xml:space="preserve"
       style="font-size:40px;font-style:normal;font-weight:normal;fill:#000000;fill-opacity:1;stroke:none;font-family:Bitstream Vera Sans"
       x="2154.7556"
       y="1256.1178"
       id="text2962"><tspan
         sodipodi:role="line"
         id="tspan2964"
         x="2154.7556"
         y="1256.1178">N=n1*n2</tspan></text>
  </g>
</svg>
