<?xml version="1.0" encoding="UTF-8" standalone="no"?>
<!-- Created with Inkscape (http://www.inkscape.org/) -->

<svg
   xmlns:dc="http://purl.org/dc/elements/1.1/"
   xmlns:cc="http://creativecommons.org/ns#"
   xmlns:rdf="http://www.w3.org/1999/02/22-rdf-syntax-ns#"
   xmlns:svg="http://www.w3.org/2000/svg"
   xmlns="http://www.w3.org/2000/svg"
   xmlns:sodipodi="http://sodipodi.sourceforge.net/DTD/sodipodi-0.dtd"
   xmlns:inkscape="http://www.inkscape.org/namespaces/inkscape"
   width="819.03046"
   height="457.08609"
   id="svg3868"
   version="1.1"
   inkscape:version="0.47 r22583"
   sodipodi:docname="throughput.svg">
  <defs
     id="defs3870">
    <inkscape:perspective
       sodipodi:type="inkscape:persp3d"
       inkscape:vp_x="0 : 526.18109 : 1"
       inkscape:vp_y="0 : 1000 : 0"
       inkscape:vp_z="744.09448 : 526.18109 : 1"
       inkscape:persp3d-origin="372.04724 : 350.78739 : 1"
       id="perspective3876" />
    <inkscape:perspective
       id="perspective3795"
       inkscape:persp3d-origin="0.5 : 0.33333333 : 1"
       inkscape:vp_z="1 : 0.5 : 1"
       inkscape:vp_y="0 : 1000 : 0"
       inkscape:vp_x="0 : 0.5 : 1"
       sodipodi:type="inkscape:persp3d" />
    <inkscape:perspective
       id="perspective4835"
       inkscape:persp3d-origin="0.5 : 0.33333333 : 1"
       inkscape:vp_z="1 : 0.5 : 1"
       inkscape:vp_y="0 : 1000 : 0"
       inkscape:vp_x="0 : 0.5 : 1"
       sodipodi:type="inkscape:persp3d" />
    <filter
       inkscape:collect="always"
       id="filter4899"
       x="-0.042269446"
       width="1.0845389"
       y="-0.10335294"
       height="1.2067059"
       color-interpolation-filters="sRGB">
      <feGaussianBlur
         inkscape:collect="always"
         stdDeviation="6.0202583"
         id="feGaussianBlur4901" />
    </filter>
    <inkscape:perspective
       id="perspective4911"
       inkscape:persp3d-origin="0.5 : 0.33333333 : 1"
       inkscape:vp_z="1 : 0.5 : 1"
       inkscape:vp_y="0 : 1000 : 0"
       inkscape:vp_x="0 : 0.5 : 1"
       sodipodi:type="inkscape:persp3d" />
    <filter
       inkscape:collect="always"
       id="filter4994"
       x="-0.032046407"
       width="1.0640928"
       y="-0.46979547"
       height="1.9395909"
       color-interpolation-filters="sRGB">
      <feGaussianBlur
         inkscape:collect="always"
         stdDeviation="7.8619601"
         id="feGaussianBlur4996" />
    </filter>
    <inkscape:perspective
       id="perspective5006"
       inkscape:persp3d-origin="0.5 : 0.33333333 : 1"
       inkscape:vp_z="1 : 0.5 : 1"
       inkscape:vp_y="0 : 1000 : 0"
       inkscape:vp_x="0 : 0.5 : 1"
       sodipodi:type="inkscape:persp3d" />
    <filter
       inkscape:collect="always"
       id="filter5104"
       x="-0.041889973"
       width="1.0837799"
       y="-0.10569403"
       height="1.2113881"
       color-interpolation-filters="sRGB">
      <feGaussianBlur
         inkscape:collect="always"
         stdDeviation="7.0439088"
         id="feGaussianBlur5106" />
    </filter>
    <inkscape:perspective
       id="perspective3797"
       inkscape:persp3d-origin="0.5 : 0.33333333 : 1"
       inkscape:vp_z="1 : 0.5 : 1"
       inkscape:vp_y="0 : 1000 : 0"
       inkscape:vp_x="0 : 0.5 : 1"
       sodipodi:type="inkscape:persp3d" />
    <inkscape:perspective
       id="perspective2963"
       inkscape:persp3d-origin="0.5 : 0.33333333 : 1"
       inkscape:vp_z="1 : 0.5 : 1"
       inkscape:vp_y="0 : 1000 : 0"
       inkscape:vp_x="0 : 0.5 : 1"
       sodipodi:type="inkscape:persp3d" />
  </defs>
  <sodipodi:namedview
     id="base"
     pagecolor="#ffffff"
     bordercolor="#666666"
     borderopacity="1.0"
     inkscape:pageopacity="0.0"
     inkscape:pageshadow="2"
     inkscape:zoom="1.0550847"
     inkscape:cx="398.82043"
     inkscape:cy="241.00118"
     inkscape:document-units="px"
     inkscape:current-layer="layer1"
     showgrid="false"
     inkscape:window-width="1447"
     inkscape:window-height="1072"
     inkscape:window-x="839"
     inkscape:window-y="246"
     inkscape:window-maximized="0" />
  <metadata
     id="metadata3873">
    <rdf:RDF>
      <cc:Work
         rdf:about="">
        <dc:format>image/svg+xml</dc:format>
        <dc:type
           rdf:resource="http://purl.org/dc/dcmitype/StillImage" />
        <dc:title />
      </cc:Work>
    </rdf:RDF>
  </metadata>
  <g
     inkscape:label="Layer 1"
     inkscape:groupmode="layer"
     id="layer1"
     transform="translate(142.90372,-260.06844)">
    <g
       id="g7681-4"
       transform="translate(362.14093,-373.02479)"
       style="fill:#4d4d4d;stroke-width:1;stroke-miterlimit:4;stroke-dasharray:none;filter:url(#filter5104)">
      <rect
         y="912.8678"
         x="-251.79555"
         height="39.908596"
         width="300.04327"
         id="rect6912-2-462"
         style="fill:#4d4d4d;stroke:#000000;stroke-width:1;stroke-miterlimit:4;stroke-opacity:1;stroke-dasharray:none" />
      <rect
         y="913.47333"
         x="-132.07448"
         height="38.697384"
         width="34.39212"
         id="rect6912-6-0-9-9"
         style="fill:#4d4d4d;fill-opacity:1;fill-rule:nonzero;stroke:#000000;stroke-width:1;stroke-miterlimit:4;stroke-opacity:1;stroke-dasharray:none" />
      <rect
         y="912.82751"
         x="15.066164"
         height="38.730457"
         width="32.537125"
         id="rect6912-6-0-1-4"
         style="fill:#4d4d4d;fill-opacity:1;fill-rule:nonzero;stroke:#000000;stroke-width:1;stroke-miterlimit:4;stroke-opacity:1;stroke-dasharray:none" />
      <rect
         y="913.47345"
         x="-251.76389"
         height="38.697384"
         width="34.392117"
         id="rect6912-6-5-0-3"
         style="fill:#4d4d4d;fill-opacity:1;fill-rule:nonzero;stroke:#000000;stroke-width:1;stroke-miterlimit:4;stroke-opacity:1;stroke-dasharray:none" />
      <rect
         y="913.47339"
         x="-98.515907"
         height="38.697384"
         width="34.392117"
         id="rect6912-6-5-0-7-5"
         style="fill:#4d4d4d;fill-opacity:1;fill-rule:nonzero;stroke:#000000;stroke-width:1;stroke-miterlimit:4;stroke-opacity:1;stroke-dasharray:none" />
      <rect
         y="953.1228"
         x="-217.46402"
         height="38.697384"
         width="34.392117"
         id="rect6912-6-5-0-5-2"
         style="fill:#4d4d4d;fill-opacity:1;fill-rule:nonzero;stroke:#000000;stroke-width:1;stroke-miterlimit:4;stroke-opacity:1;stroke-dasharray:none" />
      <rect
         y="992.77203"
         x="-182.22014"
         height="38.697384"
         width="34.392117"
         id="rect6912-6-5-0-8-2"
         style="fill:#4d4d4d;fill-opacity:1;fill-rule:nonzero;stroke:#000000;stroke-width:1;stroke-miterlimit:4;stroke-opacity:1;stroke-dasharray:none" />
      <rect
         y="952.81073"
         x="-217.10501"
         height="39.908596"
         width="300.04327"
         id="rect6912-2-2-9"
         style="fill:#4d4d4d;stroke:#000000;stroke-width:1;stroke-miterlimit:4;stroke-opacity:1;stroke-dasharray:none" />
      <rect
         y="992.81073"
         x="-182.69952"
         height="39.908596"
         width="300.04327"
         id="rect6912-2-4-6"
         style="fill:#4d4d4d;stroke:#000000;stroke-width:1;stroke-miterlimit:4;stroke-opacity:1;stroke-dasharray:none" />
      <rect
         y="1032.8108"
         x="-148.69952"
         height="39.908596"
         width="300.04327"
         id="rect6912-2-46-0"
         style="fill:#4d4d4d;stroke:#000000;stroke-width:1;stroke-miterlimit:4;stroke-opacity:1;stroke-dasharray:none" />
      <rect
         y="1033.6803"
         x="-147.60561"
         height="38.697384"
         width="34.392117"
         id="rect6912-6-5-0-8-7-5"
         style="fill:#4d4d4d;fill-opacity:1;fill-rule:nonzero;stroke:#000000;stroke-width:1;stroke-miterlimit:4;stroke-opacity:1;stroke-dasharray:none" />
      <rect
         y="953.40961"
         x="-94.711632"
         height="38.75304"
         width="31.300999"
         id="rect6912-6-0-9-5-7"
         style="fill:#4d4d4d;fill-opacity:1;fill-rule:nonzero;stroke:#000000;stroke-width:1;stroke-miterlimit:4;stroke-opacity:1;stroke-dasharray:none" />
      <rect
         y="952.69403"
         x="59.282135"
         height="38.925663"
         width="22.662649"
         id="rect6912-6-0-1-0-4"
         style="fill:#4d4d4d;fill-opacity:1;fill-rule:nonzero;stroke:#000000;stroke-width:1;stroke-miterlimit:4;stroke-opacity:1;stroke-dasharray:none" />
      <rect
         y="953.4375"
         x="-64.272003"
         height="38.697384"
         width="34.392117"
         id="rect6912-6-5-0-7-3-7"
         style="fill:#4d4d4d;fill-opacity:1;fill-rule:nonzero;stroke:#000000;stroke-width:1;stroke-miterlimit:4;stroke-opacity:1;stroke-dasharray:none" />
      <rect
         y="993.0589"
         x="-60.097099"
         height="38.75304"
         width="31.300999"
         id="rect6912-6-0-9-8-3"
         style="fill:#4d4d4d;fill-opacity:1;fill-rule:nonzero;stroke:#000000;stroke-width:1;stroke-miterlimit:4;stroke-opacity:1;stroke-dasharray:none" />
      <rect
         y="993.69965"
         x="83.924599"
         height="38.730457"
         width="32.537125"
         id="rect6912-6-0-1-7-9"
         style="fill:#4d4d4d;fill-opacity:1;fill-rule:nonzero;stroke:#000000;stroke-width:1;stroke-miterlimit:4;stroke-opacity:1;stroke-dasharray:none" />
      <rect
         y="993.08679"
         x="-28.398758"
         height="38.697384"
         width="34.392117"
         id="rect6912-6-5-0-7-9-9"
         style="fill:#4d4d4d;fill-opacity:1;fill-rule:nonzero;stroke:#000000;stroke-width:1;stroke-miterlimit:4;stroke-opacity:1;stroke-dasharray:none" />
      <rect
         y="1032.6968"
         x="-23.606018"
         height="38.776077"
         width="30.065325"
         id="rect6912-6-0-9-0-4"
         style="fill:#4d4d4d;fill-opacity:1;fill-rule:nonzero;stroke:#000000;stroke-width:1;stroke-miterlimit:4;stroke-opacity:1;stroke-dasharray:none" />
      <rect
         y="1033.9132"
         x="126.02625"
         height="38.860725"
         width="25.744488"
         id="rect6912-6-0-1-6-2"
         style="fill:#4d4d4d;fill-opacity:1;fill-rule:nonzero;stroke:#000000;stroke-width:1;stroke-miterlimit:4;stroke-opacity:1;stroke-dasharray:none" />
      <rect
         y="1033.3656"
         x="6.2157717"
         height="38.697384"
         width="34.392117"
         id="rect6912-6-5-0-7-7-8"
         style="fill:#4d4d4d;fill-opacity:1;fill-rule:nonzero;stroke:#000000;stroke-width:1;stroke-miterlimit:4;stroke-opacity:1;stroke-dasharray:none" />
      <text
         transform="scale(0.95256339,1.0497989)"
         id="text7047-2-5"
         y="895.2666"
         x="-257.67126"
         style="font-size:21.65541649000000035px;font-style:normal;font-weight:normal;fill:#4d4d4d;fill-opacity:1;stroke:none;font-family:Bitstream Vera Sans"
         xml:space="preserve"><tspan
           y="895.2666"
           x="-257.67126"
           id="tspan7049-6-0"
           sodipodi:role="line">t1</tspan></text>
      <text
         transform="scale(0.95256339,1.0497989)"
         id="text7047-9-9-7"
         y="933.7774"
         x="-221.24838"
         style="font-size:21.65541649000000035px;font-style:normal;font-weight:normal;fill:#4d4d4d;fill-opacity:1;stroke:none;font-family:Bitstream Vera Sans"
         xml:space="preserve"><tspan
           y="933.7774"
           x="-221.24838"
           id="tspan7049-3-4-6"
           sodipodi:role="line">t2</tspan></text>
      <text
         transform="scale(0.95256339,1.0497989)"
         id="text7047-3-55-5"
         y="971.39264"
         x="-183.80547"
         style="font-size:21.65541649000000035px;font-style:normal;font-weight:normal;fill:#4d4d4d;fill-opacity:1;stroke:none;font-family:Bitstream Vera Sans"
         xml:space="preserve"><tspan
           y="971.39264"
           x="-183.80547"
           id="tspan7049-5-00-6"
           sodipodi:role="line">t3</tspan></text>
      <text
         transform="scale(0.95256339,1.0497989)"
         id="text7047-3-9-0-2"
         y="1012.7687"
         x="-148.38692"
         style="font-size:21.65541649000000035px;font-style:normal;font-weight:normal;fill:#4d4d4d;fill-opacity:1;stroke:none;font-family:Bitstream Vera Sans"
         xml:space="preserve"><tspan
           y="1012.7687"
           x="-148.38692"
           id="tspan7049-5-8-0-9"
           sodipodi:role="line">t4</tspan></text>
    </g>
    <g
       id="g7656-7"
       transform="translate(320.28328,-399.37317)"
       style="fill:#4d4d4d;stroke-width:1;stroke-miterlimit:4;stroke-dasharray:none;filter:url(#filter4994)">
      <rect
         y="848.74768"
         x="-252.31839"
         height="39.784447"
         width="588.79315"
         id="rect6912-9"
         style="fill:#4d4d4d;fill-opacity:1;fill-rule:nonzero;stroke:#000000;stroke-width:1;stroke-miterlimit:4;stroke-opacity:1;stroke-dasharray:none" />
      <rect
         y="848.97229"
         x="-251.90651"
         height="38.925663"
         width="22.662649"
         id="rect6912-6-6"
         style="fill:#4d4d4d;fill-opacity:1;fill-rule:nonzero;stroke:#000000;stroke-width:1;stroke-miterlimit:4;stroke-opacity:1;stroke-dasharray:none" />
      <rect
         y="849.21558"
         x="-214.53819"
         height="38.925663"
         width="22.662649"
         id="rect6912-6-1-9"
         style="fill:#4d4d4d;fill-opacity:1;fill-rule:nonzero;stroke:#000000;stroke-width:1;stroke-miterlimit:4;stroke-opacity:1;stroke-dasharray:none" />
      <rect
         y="848.88116"
         x="-175.62567"
         height="38.925663"
         width="22.662649"
         id="rect6912-6-1-5-73"
         style="fill:#4d4d4d;fill-opacity:1;fill-rule:nonzero;stroke:#000000;stroke-width:1;stroke-miterlimit:4;stroke-opacity:1;stroke-dasharray:none" />
      <rect
         y="848.9245"
         x="-135.56039"
         height="38.925663"
         width="22.662649"
         id="rect6912-6-7-3"
         style="fill:#4d4d4d;fill-opacity:1;fill-rule:nonzero;stroke:#000000;stroke-width:1;stroke-miterlimit:4;stroke-opacity:1;stroke-dasharray:none" />
      <rect
         y="848.53845"
         x="-18.893349"
         height="38.925663"
         width="22.662649"
         id="rect6912-6-1-6-8"
         style="fill:#4d4d4d;fill-opacity:1;fill-rule:nonzero;stroke:#000000;stroke-width:1;stroke-miterlimit:4;stroke-opacity:1;stroke-dasharray:none" />
      <rect
         y="848.83337"
         x="-59.279568"
         height="38.925663"
         width="22.662649"
         id="rect6912-6-1-5-7-5"
         style="fill:#4d4d4d;fill-opacity:1;fill-rule:nonzero;stroke:#000000;stroke-width:1;stroke-miterlimit:4;stroke-opacity:1;stroke-dasharray:none" />
      <rect
         y="849.31519"
         x="18.156351"
         height="38.925663"
         width="22.662649"
         id="rect6912-6-1-1-5"
         style="fill:#4d4d4d;fill-opacity:1;fill-rule:nonzero;stroke:#000000;stroke-width:1;stroke-miterlimit:4;stroke-opacity:1;stroke-dasharray:none" />
      <rect
         y="848.98077"
         x="57.068886"
         height="38.925663"
         width="22.662649"
         id="rect6912-6-1-5-6-2"
         style="fill:#4d4d4d;fill-opacity:1;fill-rule:nonzero;stroke:#000000;stroke-width:1;stroke-miterlimit:4;stroke-opacity:1;stroke-dasharray:none" />
      <rect
         y="849.16779"
         x="135.83197"
         height="38.925663"
         width="22.662649"
         id="rect6912-6-1-0-0"
         style="fill:#4d4d4d;fill-opacity:1;fill-rule:nonzero;stroke:#000000;stroke-width:1;stroke-miterlimit:4;stroke-opacity:1;stroke-dasharray:none" />
      <rect
         y="848.83337"
         x="174.74451"
         height="38.925663"
         width="22.662649"
         id="rect6912-6-1-5-65-7"
         style="fill:#4d4d4d;fill-opacity:1;fill-rule:nonzero;stroke:#000000;stroke-width:1;stroke-miterlimit:4;stroke-opacity:1;stroke-dasharray:none" />
      <rect
         y="848.45959"
         x="96.40564"
         height="38.925663"
         width="22.662649"
         id="rect6912-6-0-11"
         style="fill:#4d4d4d;fill-opacity:1;fill-rule:nonzero;stroke:#000000;stroke-width:1;stroke-miterlimit:4;stroke-opacity:1;stroke-dasharray:none" />
      <rect
         y="848.70288"
         x="250.83398"
         height="38.925663"
         width="22.662649"
         id="rect6912-6-1-05-7"
         style="fill:#4d4d4d;fill-opacity:1;fill-rule:nonzero;stroke:#000000;stroke-width:1;stroke-miterlimit:4;stroke-opacity:1;stroke-dasharray:none" />
      <rect
         y="848.36847"
         x="289.74652"
         height="38.925663"
         width="22.662649"
         id="rect6912-6-1-5-78-7"
         style="fill:#4d4d4d;fill-opacity:1;fill-rule:nonzero;stroke:#000000;stroke-width:1;stroke-miterlimit:4;stroke-opacity:1;stroke-dasharray:none" />
      <text
         transform="scale(0.95256338,1.0497989)"
         id="text7047-38"
         y="834.61719"
         x="-262.55069"
         style="font-size:21.65541649000000035px;font-style:normal;font-weight:normal;fill:#4d4d4d;fill-opacity:1;stroke:none;font-family:Bitstream Vera Sans"
         xml:space="preserve"><tspan
           y="834.61719"
           x="-262.55069"
           id="tspan7049-4"
           sodipodi:role="line">t1</tspan></text>
      <text
         transform="scale(0.95256339,1.0497989)"
         id="text7047-9-8"
         y="835.91602"
         x="-224.63646"
         style="font-size:21.65541649000000035px;font-style:normal;font-weight:normal;fill:#4d4d4d;fill-opacity:1;stroke:none;font-family:Bitstream Vera Sans"
         xml:space="preserve"><tspan
           y="835.91602"
           x="-224.63646"
           id="tspan7049-3-8"
           sodipodi:role="line">t2</tspan></text>
      <text
         transform="scale(0.95256339,1.0497989)"
         id="text7047-3-1"
         y="835.31659"
         x="-183.01259"
         style="font-size:21.65541649000000035px;font-style:normal;font-weight:normal;fill:#4d4d4d;fill-opacity:1;stroke:none;font-family:Bitstream Vera Sans"
         xml:space="preserve"><tspan
           y="835.31659"
           x="-183.01259"
           id="tspan7049-5-9"
           sodipodi:role="line">t3</tspan></text>
      <text
         transform="scale(0.95256339,1.0497989)"
         id="text7047-3-9-1"
         y="835.30597"
         x="-140.8602"
         style="font-size:21.65541649000000035px;font-style:normal;font-weight:normal;fill:#4d4d4d;fill-opacity:1;stroke:none;font-family:Bitstream Vera Sans"
         xml:space="preserve"><tspan
           y="835.30597"
           x="-140.8602"
           id="tspan7049-5-8-5"
           sodipodi:role="line">t4</tspan></text>
      <rect
         y="848.53571"
         x="211.95673"
         height="38.925663"
         width="22.662649"
         id="rect6912-6-5-1-4"
         style="fill:#4d4d4d;fill-opacity:1;fill-rule:nonzero;stroke:#000000;stroke-width:1;stroke-miterlimit:4;stroke-opacity:1;stroke-dasharray:none" />
    </g>
    <g
       transform="translate(131.51325,-424.90256)"
       id="g7752-5"
       style="fill:#4d4d4d;stroke-width:1;stroke-miterlimit:4;stroke-dasharray:none;filter:url(#filter4899)">
      <rect
         y="699.91962"
         x="-259.46835"
         height="139.79883"
         width="341.82184"
         id="rect7654-5"
         style="fill:#4d4d4d;fill-opacity:1;fill-rule:nonzero;stroke:#000000;stroke-width:1;stroke-linecap:round;stroke-linejoin:round;stroke-miterlimit:4;stroke-opacity:1;stroke-dasharray:none;stroke-dashoffset:0" />
      <rect
         y="793.05933"
         x="-251.44398"
         height="38.925663"
         width="22.662649"
         id="rect6912-6-2-4"
         style="fill:#4d4d4d;fill-opacity:1;fill-rule:nonzero;stroke:#000000;stroke-width:1;stroke-miterlimit:4;stroke-opacity:1;stroke-dasharray:none" />
      <rect
         y="706.06091"
         x="-252.08713"
         height="38.925663"
         width="22.662649"
         id="rect6912-6-5-8"
         style="fill:#4d4d4d;fill-opacity:1;fill-rule:nonzero;stroke:#000000;stroke-width:1;stroke-miterlimit:4;stroke-opacity:1;stroke-dasharray:none" />
      <text
         transform="scale(0.95256339,1.0497989)"
         id="text7047-3-6-0"
         y="696.82129"
         x="-232.03629"
         style="font-size:21.65541649000000035px;font-style:normal;font-weight:normal;fill:#4d4d4d;fill-opacity:1;stroke:none;font-family:Bitstream Vera Sans"
         xml:space="preserve"><tspan
           y="696.82129"
           x="-232.03629"
           id="tspan7049-5-0-9"
           sodipodi:role="line">Processing</tspan></text>
      <text
         transform="scale(0.95256339,1.0497989)"
         id="text7047-3-6-9-9"
         y="780.04181"
         x="-232.23558"
         style="font-size:21.65541649000000035px;font-style:normal;font-weight:normal;fill:#4d4d4d;fill-opacity:1;stroke:none;font-family:Bitstream Vera Sans"
         xml:space="preserve"><tspan
           y="780.04181"
           x="-232.23558"
           id="tspan7049-5-0-4-3"
           sodipodi:role="line">Data ready to be processing</tspan></text>
      <rect
         y="749.72687"
         x="-251.24867"
         height="38.925663"
         width="22.662649"
         id="rect6912-6-2-9-7"
         style="fill:#4d4d4d;fill-opacity:1;fill-rule:nonzero;stroke:#000000;stroke-width:1;stroke-miterlimit:4;stroke-opacity:1;stroke-dasharray:none" />
      <text
         transform="scale(0.95256339,1.0497989)"
         id="text7047-3-6-4-2"
         y="739.87524"
         x="-231.12552"
         style="font-size:21.65541649000000035px;font-style:normal;font-weight:normal;fill:#4d4d4d;fill-opacity:1;stroke:none;font-family:Bitstream Vera Sans"
         xml:space="preserve"><tspan
           y="739.87524"
           x="-231.12552"
           id="tspan7049-5-0-2-2"
           sodipodi:role="line">Waiting for data</tspan></text>
    </g>
    <rect
       style="fill:#ffffff;fill-opacity:1;fill-rule:nonzero;stroke:#000000;stroke-width:1;stroke-miterlimit:4;stroke-opacity:1;stroke-dasharray:none"
       id="rect6912"
       width="588.79315"
       height="39.784447"
       x="62.191608"
       y="442.88321" />
    <rect
       style="fill:#b7ff00;fill-opacity:1;fill-rule:nonzero;stroke:#000000;stroke-width:1;stroke-miterlimit:4;stroke-opacity:1;stroke-dasharray:none"
       id="rect6912-6"
       width="22.662649"
       height="38.925663"
       x="62.603489"
       y="443.10782" />
    <rect
       style="fill:#b7ff00;fill-opacity:1;fill-rule:nonzero;stroke:#000000;stroke-width:1;stroke-miterlimit:4;stroke-opacity:1;stroke-dasharray:none"
       id="rect6912-6-1"
       width="22.662649"
       height="38.925663"
       x="99.971809"
       y="443.3511" />
    <rect
       style="fill:#b7ff00;fill-opacity:1;fill-rule:nonzero;stroke:#000000;stroke-width:1;stroke-miterlimit:4;stroke-opacity:1;stroke-dasharray:none"
       id="rect6912-6-1-5"
       width="22.662649"
       height="38.925663"
       x="138.88432"
       y="443.01669" />
    <rect
       style="fill:#b7ff00;fill-opacity:1;fill-rule:nonzero;stroke:#000000;stroke-width:1;stroke-miterlimit:4;stroke-opacity:1;stroke-dasharray:none"
       id="rect6912-6-7"
       width="22.662649"
       height="38.925663"
       x="178.9496"
       y="443.06003" />
    <rect
       style="fill:#b7ff00;fill-opacity:1;fill-rule:nonzero;stroke:#000000;stroke-width:1;stroke-miterlimit:4;stroke-opacity:1;stroke-dasharray:none"
       id="rect6912-6-1-6"
       width="22.662649"
       height="38.925663"
       x="295.61664"
       y="442.67398" />
    <rect
       style="fill:#b7ff00;fill-opacity:1;fill-rule:nonzero;stroke:#000000;stroke-width:1;stroke-miterlimit:4;stroke-opacity:1;stroke-dasharray:none"
       id="rect6912-6-1-5-7"
       width="22.662649"
       height="38.925663"
       x="255.23044"
       y="442.9689" />
    <rect
       style="fill:#b7ff00;fill-opacity:1;fill-rule:nonzero;stroke:#000000;stroke-width:1;stroke-miterlimit:4;stroke-opacity:1;stroke-dasharray:none"
       id="rect6912-6-1-1"
       width="22.662649"
       height="38.925663"
       x="332.66635"
       y="443.45071" />
    <rect
       style="fill:#b7ff00;fill-opacity:1;fill-rule:nonzero;stroke:#000000;stroke-width:1;stroke-miterlimit:4;stroke-opacity:1;stroke-dasharray:none"
       id="rect6912-6-1-5-6"
       width="22.662649"
       height="38.925663"
       x="371.57889"
       y="443.1163" />
    <rect
       style="fill:#b7ff00;fill-opacity:1;fill-rule:nonzero;stroke:#000000;stroke-width:1;stroke-miterlimit:4;stroke-opacity:1;stroke-dasharray:none"
       id="rect6912-6-1-0"
       width="22.662649"
       height="38.925663"
       x="450.34198"
       y="443.30331" />
    <rect
       style="fill:#b7ff00;fill-opacity:1;fill-rule:nonzero;stroke:#000000;stroke-width:1;stroke-miterlimit:4;stroke-opacity:1;stroke-dasharray:none"
       id="rect6912-6-1-5-65"
       width="22.662649"
       height="38.925663"
       x="489.25452"
       y="442.9689" />
    <rect
       style="fill:#808080;fill-opacity:1;fill-rule:nonzero;stroke:#000000;stroke-width:1;stroke-miterlimit:4;stroke-opacity:1;stroke-dasharray:none"
       id="rect6912-6-0"
       width="22.662649"
       height="38.925663"
       x="410.91565"
       y="442.59512" />
    <rect
       style="fill:#b7ff00;fill-opacity:1;fill-rule:nonzero;stroke:#000000;stroke-width:1;stroke-miterlimit:4;stroke-opacity:1;stroke-dasharray:none"
       id="rect6912-6-1-05"
       width="22.662649"
       height="38.925663"
       x="565.34399"
       y="442.83841" />
    <rect
       style="fill:#b7ff00;fill-opacity:1;fill-rule:nonzero;stroke:#000000;stroke-width:1;stroke-miterlimit:4;stroke-opacity:1;stroke-dasharray:none"
       id="rect6912-6-1-5-78"
       width="22.662649"
       height="38.925663"
       x="604.25653"
       y="442.504" />
    <text
       xml:space="preserve"
       style="font-size:21.65541649px;font-style:normal;font-weight:normal;fill:#000000;fill-opacity:1;stroke:none;font-family:Bitstream Vera Sans"
       x="67.621567"
       y="448.00555"
       id="text7047"
       transform="scale(0.95256339,1.0497989)"><tspan
         sodipodi:role="line"
         id="tspan7049"
         x="67.621567"
         y="448.00555">t1</tspan></text>
    <text
       xml:space="preserve"
       style="font-size:21.65541649px;font-style:normal;font-weight:normal;fill:#000000;fill-opacity:1;stroke:none;font-family:Bitstream Vera Sans"
       x="105.53579"
       y="449.30438"
       id="text7047-9"
       transform="scale(0.95256339,1.0497989)"><tspan
         sodipodi:role="line"
         id="tspan7049-3"
         x="105.53579"
         y="449.30438">t2</tspan></text>
    <text
       xml:space="preserve"
       style="font-size:21.65541649px;font-style:normal;font-weight:normal;fill:#000000;fill-opacity:1;stroke:none;font-family:Bitstream Vera Sans"
       x="147.15967"
       y="448.70496"
       id="text7047-3"
       transform="scale(0.95256339,1.0497989)"><tspan
         sodipodi:role="line"
         id="tspan7049-5"
         x="147.15967"
         y="448.70496">t3</tspan></text>
    <text
       xml:space="preserve"
       style="font-size:21.65541649px;font-style:normal;font-weight:normal;fill:#000000;fill-opacity:1;stroke:none;font-family:Bitstream Vera Sans"
       x="189.31206"
       y="448.69434"
       id="text7047-3-9"
       transform="scale(0.95256339,1.0497989)"><tspan
         sodipodi:role="line"
         id="tspan7049-5-8"
         x="189.31206"
         y="448.69434">t4</tspan></text>
    <rect
       style="fill:#b7ff00;fill-opacity:1;fill-rule:nonzero;stroke:#000000;stroke-width:1;stroke-miterlimit:4;stroke-opacity:1;stroke-dasharray:none"
       id="rect6912-6-5-1"
       width="22.662649"
       height="38.925663"
       x="526.46674"
       y="442.67123" />
    <rect
       style="fill:#ffffff;fill-opacity:1;stroke:#000000;stroke-width:1;stroke-miterlimit:4;stroke-opacity:1;stroke-dasharray:none"
       id="rect6912-2"
       width="300.04327"
       height="39.908596"
       x="110.42246"
       y="531.31995" />
    <rect
       style="fill:#808080;fill-opacity:1;fill-rule:nonzero;stroke:#000000;stroke-width:1;stroke-miterlimit:4;stroke-opacity:1;stroke-dasharray:none"
       id="rect6912-6-0-9"
       width="34.39212"
       height="38.697384"
       x="230.14352"
       y="531.92548" />
    <rect
       style="fill:#808080;fill-opacity:1;fill-rule:nonzero;stroke:#000000;stroke-width:1;stroke-miterlimit:4;stroke-opacity:1;stroke-dasharray:none"
       id="rect6912-6-0-1"
       width="32.537125"
       height="38.730457"
       x="377.28418"
       y="531.27966" />
    <rect
       style="fill:#b7ff00;fill-opacity:1;fill-rule:nonzero;stroke:#000000;stroke-width:1;stroke-miterlimit:4;stroke-opacity:1;stroke-dasharray:none"
       id="rect6912-6-5-0"
       width="34.392117"
       height="38.697384"
       x="110.45412"
       y="531.9256" />
    <rect
       style="fill:#b7ff00;fill-opacity:1;fill-rule:nonzero;stroke:#000000;stroke-width:1;stroke-miterlimit:4;stroke-opacity:1;stroke-dasharray:none"
       id="rect6912-6-5-0-7"
       width="34.392117"
       height="38.697384"
       x="263.70212"
       y="531.92554" />
    <rect
       style="fill:#ffffff;fill-opacity:1;stroke:#000000;stroke-width:1;stroke-miterlimit:4;stroke-opacity:1;stroke-dasharray:none"
       id="rect6912-2-2"
       width="300.04327"
       height="39.908596"
       x="145.11301"
       y="571.26288" />
    <rect
       style="fill:#b7ff00;fill-opacity:1;fill-rule:nonzero;stroke:#000000;stroke-width:1;stroke-miterlimit:4;stroke-opacity:1;stroke-dasharray:none"
       id="rect6912-6-5-0-5"
       width="34.392117"
       height="38.697384"
       x="144.754"
       y="571.57495" />
    <rect
       style="fill:#aaaaff;fill-opacity:1;fill-rule:nonzero;stroke:#000000;stroke-width:1;stroke-miterlimit:4;stroke-opacity:1;stroke-dasharray:none"
       id="rect6912-6-5-0-8"
       width="34.392117"
       height="38.697384"
       x="179.99786"
       y="611.22418" />
    <rect
       style="fill:#ffffff;fill-opacity:1;stroke:#000000;stroke-width:1;stroke-miterlimit:4;stroke-opacity:1;stroke-dasharray:none"
       id="rect6912-2-4"
       width="300.04327"
       height="39.908596"
       x="179.51849"
       y="611.26288" />
    <rect
       style="fill:#ffffff;fill-opacity:1;stroke:#000000;stroke-width:1;stroke-miterlimit:4;stroke-opacity:1;stroke-dasharray:none"
       id="rect6912-2-46"
       width="300.04327"
       height="39.908596"
       x="213.51849"
       y="651.26294" />
    <rect
       style="fill:#b7ff00;fill-opacity:1;fill-rule:nonzero;stroke:#000000;stroke-width:1;stroke-miterlimit:4;stroke-opacity:1;stroke-dasharray:none"
       id="rect6912-6-5-0-8-7"
       width="34.392117"
       height="38.697384"
       x="214.6124"
       y="652.13245" />
    <rect
       style="fill:#808080;fill-opacity:1;fill-rule:nonzero;stroke:#000000;stroke-width:1;stroke-miterlimit:4;stroke-opacity:1;stroke-dasharray:none"
       id="rect6912-6-0-9-5"
       width="31.300999"
       height="38.75304"
       x="267.50638"
       y="571.86176" />
    <rect
       style="fill:#808080;fill-opacity:1;fill-rule:nonzero;stroke:#000000;stroke-width:1;stroke-miterlimit:4;stroke-opacity:1;stroke-dasharray:none"
       id="rect6912-6-0-1-0"
       width="22.662649"
       height="38.925663"
       x="421.50012"
       y="571.14618" />
    <rect
       style="fill:#b7ff00;fill-opacity:1;fill-rule:nonzero;stroke:#000000;stroke-width:1;stroke-miterlimit:4;stroke-opacity:1;stroke-dasharray:none"
       id="rect6912-6-5-0-7-3"
       width="34.392117"
       height="38.697384"
       x="297.94601"
       y="571.88965" />
    <rect
       style="fill:#808080;fill-opacity:1;fill-rule:nonzero;stroke:#000000;stroke-width:1;stroke-miterlimit:4;stroke-opacity:1;stroke-dasharray:none"
       id="rect6912-6-0-9-8"
       width="31.300999"
       height="38.75304"
       x="302.12091"
       y="611.51105" />
    <rect
       style="fill:#808080;fill-opacity:1;fill-rule:nonzero;stroke:#000000;stroke-width:1;stroke-miterlimit:4;stroke-opacity:1;stroke-dasharray:none"
       id="rect6912-6-0-1-7"
       width="32.537125"
       height="38.730457"
       x="446.14264"
       y="612.15179" />
    <rect
       style="fill:#b7ff00;fill-opacity:1;fill-rule:nonzero;stroke:#000000;stroke-width:1;stroke-miterlimit:4;stroke-opacity:1;stroke-dasharray:none"
       id="rect6912-6-5-0-7-9"
       width="34.392117"
       height="38.697384"
       x="333.81924"
       y="611.53894" />
    <rect
       style="fill:#808080;fill-opacity:1;fill-rule:nonzero;stroke:#000000;stroke-width:1;stroke-miterlimit:4;stroke-opacity:1;stroke-dasharray:none"
       id="rect6912-6-0-9-0"
       width="30.065325"
       height="38.776077"
       x="338.612"
       y="651.14893" />
    <rect
       style="fill:#808080;fill-opacity:1;fill-rule:nonzero;stroke:#000000;stroke-width:1;stroke-miterlimit:4;stroke-opacity:1;stroke-dasharray:none"
       id="rect6912-6-0-1-6"
       width="25.744488"
       height="38.860725"
       x="488.24426"
       y="652.36536" />
    <rect
       style="fill:#b7ff00;fill-opacity:1;fill-rule:nonzero;stroke:#000000;stroke-width:1;stroke-miterlimit:4;stroke-opacity:1;stroke-dasharray:none"
       id="rect6912-6-5-0-7-7"
       width="34.392117"
       height="38.697384"
       x="368.43378"
       y="651.81775" />
    <text
       xml:space="preserve"
       style="font-size:21.65541649px;font-style:normal;font-weight:normal;fill:#000000;fill-opacity:1;stroke:none;font-family:Bitstream Vera Sans"
       x="122.5848"
       y="531.81812"
       id="text7047-2"
       transform="scale(0.95256339,1.0497989)"><tspan
         sodipodi:role="line"
         id="tspan7049-6"
         x="122.5848"
         y="531.81812">t1</tspan></text>
    <text
       xml:space="preserve"
       style="font-size:21.65541649px;font-style:normal;font-weight:normal;fill:#000000;fill-opacity:1;stroke:none;font-family:Bitstream Vera Sans"
       x="159.00769"
       y="570.32892"
       id="text7047-9-9"
       transform="scale(0.95256339,1.0497989)"><tspan
         sodipodi:role="line"
         id="tspan7049-3-4"
         x="159.00769"
         y="570.32892">t2</tspan></text>
    <rect
       style="fill:#b7ff00;fill-opacity:1;fill-rule:nonzero;stroke:#000000;stroke-width:1;stroke-miterlimit:4;stroke-opacity:1;stroke-dasharray:none"
       id="rect6912-6-5-0-7-9-6"
       width="34.392117"
       height="38.697384"
       x="180.15727"
       y="612.50464" />
    <text
       xml:space="preserve"
       style="font-size:21.65541649px;font-style:normal;font-weight:normal;fill:#000000;fill-opacity:1;stroke:none;font-family:Bitstream Vera Sans"
       x="196.45059"
       y="607.94415"
       id="text7047-3-55"
       transform="scale(0.95256339,1.0497989)"><tspan
         sodipodi:role="line"
         id="tspan7049-5-00"
         x="196.45059"
         y="607.94415">t3</tspan></text>
    <text
       xml:space="preserve"
       style="font-size:21.65541649px;font-style:normal;font-weight:normal;fill:#000000;fill-opacity:1;stroke:none;font-family:Bitstream Vera Sans"
       x="231.86914"
       y="649.32019"
       id="text7047-3-9-0"
       transform="scale(0.95256339,1.0497989)"><tspan
         sodipodi:role="line"
         id="tspan7049-5-8-0"
         x="231.86914"
         y="649.32019">t4</tspan></text>
    <rect
       style="fill:#ffffff;fill-opacity:1;fill-rule:nonzero;stroke:#000000;stroke-width:1;stroke-linecap:round;stroke-linejoin:round;stroke-miterlimit:4;stroke-opacity:1;stroke-dasharray:none;stroke-dashoffset:0"
       id="rect7654"
       width="341.82184"
       height="139.79883"
       x="-129.7674"
       y="270.43555" />
    <rect
       style="fill:#808080;fill-opacity:1;fill-rule:nonzero;stroke:#000000;stroke-width:1;stroke-miterlimit:4;stroke-opacity:1;stroke-dasharray:none"
       id="rect6912-6-2"
       width="22.662649"
       height="38.925663"
       x="-121.74303"
       y="363.57526" />
    <rect
       style="fill-opacity:1;fill-rule:nonzero;stroke:#000000;stroke-width:1;stroke-miterlimit:4;stroke-opacity:1;stroke-dasharray:none;fill:#b7ff00"
       id="rect6912-6-5"
       width="22.662649"
       height="38.925663"
       x="-122.38617"
       y="276.57684" />
    <text
       xml:space="preserve"
       style="font-size:21.65541649px;font-style:normal;font-weight:normal;fill:#000000;fill-opacity:1;stroke:none;font-family:Bitstream Vera Sans"
       x="-95.876358"
       y="287.71048"
       id="text7047-3-6"
       transform="scale(0.95256339,1.0497989)"><tspan
         sodipodi:role="line"
         id="tspan7049-5-0"
         x="-95.876358"
         y="287.71048">Processing</tspan></text>
    <text
       xml:space="preserve"
       style="font-size:21.65541649px;font-style:normal;font-weight:normal;fill:#000000;fill-opacity:1;stroke:none;font-family:Bitstream Vera Sans"
       x="-96.075653"
       y="370.931"
       id="text7047-3-6-9"
       transform="scale(0.95256339,1.0497989)"><tspan
         sodipodi:role="line"
         id="tspan7049-5-0-4"
         x="-96.075653"
         y="370.931">Data ready to be processing</tspan></text>
    <rect
       style="fill:#ffffff;fill-opacity:1;fill-rule:nonzero;stroke:#000000;stroke-width:1;stroke-miterlimit:4;stroke-opacity:1;stroke-dasharray:none"
       id="rect6912-6-2-9"
       width="22.662649"
       height="38.925663"
       x="-121.54771"
       y="320.2428" />
    <text
       xml:space="preserve"
       style="font-size:21.65541649px;font-style:normal;font-weight:normal;fill:#000000;fill-opacity:1;stroke:none;font-family:Bitstream Vera Sans"
       x="-94.965591"
       y="330.76443"
       id="text7047-3-6-4"
       transform="scale(0.95256339,1.0497989)"><tspan
         sodipodi:role="line"
         id="tspan7049-5-0-2"
         x="-94.965591"
         y="330.76443">Waiting for data</tspan></text>
    <text
       xml:space="preserve"
       style="font-size:20.66472626px;font-style:normal;font-weight:normal;fill:#000000;fill-opacity:1;stroke:none;font-family:Bitstream Vera Sans"
       x="-137.81459"
       y="442.4321"
       id="text7723"
       transform="scale(0.94830387,1.0545143)"><tspan
         sodipodi:role="line"
         id="tspan7725"
         x="-137.81459"
         y="442.4321"><tspan
   style="fill:#0000ff"
   id="tspan5166">CPU</tspan>: Low latency</tspan></text>
    <text
       xml:space="preserve"
       style="font-size:20.66472626px;font-style:normal;font-weight:normal;fill:#000000;fill-opacity:1;stroke:none;font-family:Bitstream Vera Sans"
       x="-139.76338"
       y="580.61627"
       id="text7723-3"
       transform="scale(0.94830387,1.0545143)"><tspan
         sodipodi:role="line"
         id="tspan7725-3"
         x="-139.76338"
         y="580.61627"><tspan
   style="fill:#0000ff"
   id="tspan5168">GPU</tspan>: High throughput</tspan></text>
    <rect
       style="fill:#808080;fill-opacity:1;fill-rule:nonzero;stroke:#000000;stroke-width:1;stroke-miterlimit:4;stroke-opacity:1;stroke-dasharray:none"
       id="rect6912-6-0-8"
       width="22.662649"
       height="38.925663"
       x="217.29912"
       y="443.68365" />
  </g>
</svg>
